<?xml version="1.0" encoding="utf-8"?>
<!-- Generator: Adobe Illustrator 17.1.0, SVG Export Plug-In . SVG Version: 6.00 Build 0)  -->
<!DOCTYPE svg PUBLIC "-//W3C//DTD SVG 1.1//EN" "http://www.w3.org/Graphics/SVG/1.1/DTD/svg11.dtd">
<svg version="1.1" id="Layer_1" xmlns="http://www.w3.org/2000/svg" xmlns:xlink="http://www.w3.org/1999/xlink" x="0px" y="0px"
	 viewBox="0 0 60 60" enable-background="new 0 0 60 60" xml:space="preserve">
<g>
	<path fill="#FFFFFF" d="M25.1,29.3c-4.5,0-8.1,3.6-8.1,8.1c0,4.5,3.6,8.1,8.1,8.1c4.5,0,8.1-3.6,8.1-8.1S29.6,29.3,25.1,29.3z
		 M25.1,42.5c-2.8,0-5.1-2.3-5.1-5.1c0-2.8,2.3-5.1,5.1-5.1c2.8,0,5.1,2.3,5.1,5.1S27.9,42.5,25.1,42.5z"/>
	<path fill="#FFFFFF" d="M50.9,0H32.6c-3.7,0-6.7,3-6.7,6.7v8h-3.9c-0.8,0-1.5,0.7-1.5,1.5v2.6c-1.9,0.5-3.8,1.2-5.4,2.3l-1.8-1.8
		c-0.6-0.6-1.5-0.6-2.1,0l-4.3,4.3c-0.3,0.3-0.4,0.7-0.4,1c0,0.4,0.2,0.8,0.4,1l1.8,1.8c-1,1.7-1.8,3.5-2.3,5.4H3.9
		c-0.8,0-1.5,0.7-1.5,1.5v6c0,0.8,0.7,1.5,1.5,1.5h2.6c0.5,1.9,1.2,3.8,2.3,5.4l-1.8,1.8c-0.6,0.6-0.6,1.5,0,2.1l4.3,4.3
		c0.6,0.6,1.5,0.6,2.1,0l1.8-1.8c1.7,1,3.5,1.8,5.4,2.3v2.6c0,0.8,0.7,1.5,1.5,1.5h6c0.8,0,1.5-0.7,1.5-1.5v-2.6
		c1.9-0.5,3.8-1.2,5.4-2.3l1.8,1.8c0.6,0.6,1.5,0.6,2.1,0l4.3-4.3c0.3-0.3,0.4-0.7,0.4-1c0-0.4-0.2-0.8-0.4-1l-1.8-1.8
		c1-1.7,1.8-3.5,2.3-5.4h2.6c0.8,0,1.5-0.7,1.5-1.5v-6c0-0.8-0.7-1.5-1.5-1.5h-2.6c-0.2-0.7-0.4-1.4-0.6-2l2.8-2h5
		c3.7,0,6.7-3,6.7-6.7V6.7C57.6,3,54.6,0,50.9,0z M41,34.6c0.1,0.7,0.7,1.2,1.5,1.2h2.3v3.1h-2.3c-0.7,0-1.3,0.5-1.5,1.2
		c-0.4,2.4-1.3,4.6-2.7,6.5c-0.4,0.6-0.3,1.4,0.2,1.9l1.6,1.6l-2.2,2.2l-1.6-1.6c-0.5-0.5-1.3-0.6-1.9-0.2c-2,1.4-4.2,2.3-6.5,2.7
		c-0.7,0.1-1.2,0.7-1.2,1.5V57h-3.1v-2.3c0-0.7-0.5-1.3-1.2-1.5c-2.4-0.4-4.6-1.3-6.5-2.7c-0.6-0.4-1.4-0.3-1.9,0.2l-1.6,1.6
		l-2.2-2.2l1.6-1.6c0.5-0.5,0.6-1.3,0.2-1.9c-1.4-2-2.3-4.2-2.7-6.5c-0.1-0.7-0.7-1.2-1.5-1.2H5.4v-3.1h2.3c0.7,0,1.3-0.5,1.5-1.2
		c0.4-2.4,1.3-4.6,2.7-6.5c0.4-0.6,0.3-1.4-0.2-1.9l-1.6-1.6l2.2-2.2l1.6,1.6c0.5,0.5,1.3,0.6,1.9,0.2c2-1.4,4.2-2.3,6.5-2.7
		c0.7-0.1,1.2-0.7,1.2-1.5v-2.3h2.4v4.5c0,3.7,3,6.7,6.7,6.7h1.5v5.6c0,0.6,0.3,1.1,0.8,1.3c0.2,0.1,0.4,0.2,0.7,0.2
		c0.3,0,0.6-0.1,0.9-0.3l4.1-2.9C40.7,33.3,40.9,33.9,41,34.6z M54.6,22.1c0,2-1.7,3.7-3.7,3.7h-5.5c-0.3,0-0.6,0.1-0.9,0.3
		l-7.4,5.4v-4.2c0-0.8-0.7-1.5-1.5-1.5h-3c-2,0-3.7-1.7-3.7-3.7V6.7c0-2,1.7-3.7,3.7-3.7h18.3c2,0,3.7,1.7,3.7,3.7V22.1z"/>
	<path fill="#FFFFFF" d="M41.6,4.9c-3.4,0-6.2,2.8-6.2,6.2c0,0.8,0.7,1.5,1.5,1.5s1.5-0.7,1.5-1.5c0-1.8,1.4-3.2,3.2-3.2
		s3.2,1.4,3.2,3.2c0,1.8-2.3,4.1-3.8,5.6c-0.2,0.2-0.3,0.3-0.4,0.4c-0.6,0.6-0.6,1.5,0,2.1c0.3,0.3,0.7,0.4,1,0.4s0.8-0.1,1-0.4
		c0.1-0.1,0.3-0.3,0.4-0.4c2-2,4.7-4.7,4.7-7.7C47.8,7.6,45,4.9,41.6,4.9z"/>
	<path fill="#FFFFFF" d="M41.2,20.9c-0.5,0-0.9,0.2-1.3,0.5c-0.3,0.3-0.5,0.8-0.5,1.3c0,0.5,0.2,0.9,0.5,1.3
		c0.3,0.3,0.8,0.5,1.3,0.5s0.9-0.2,1.3-0.5c0.3-0.3,0.5-0.8,0.5-1.3c0-0.5-0.2-0.9-0.5-1.3C42.1,21.1,41.6,20.9,41.2,20.9z"/>
</g>
</svg>
