<?xml version="1.0" encoding="utf-8"?>
<!-- Generator: Adobe Illustrator 17.1.0, SVG Export Plug-In . SVG Version: 6.00 Build 0)  -->
<!DOCTYPE svg PUBLIC "-//W3C//DTD SVG 1.1//EN" "http://www.w3.org/Graphics/SVG/1.1/DTD/svg11.dtd">
<svg version="1.1" id="Layer_1" xmlns="http://www.w3.org/2000/svg" xmlns:xlink="http://www.w3.org/1999/xlink" x="0px" y="0px"
	 viewBox="0 0 80 60" enable-background="new 0 0 80 60" xml:space="preserve">
<g>
	<path fill="#222222" d="M59.4,19.4l7.4-7.4c0.4-0.4,0.6-1.1,0.3-1.6c-0.2-0.6-0.8-0.9-1.4-0.9l-5.1-0.1l-0.1-5.1
		c0-0.6-0.4-1.1-0.9-1.4c-0.6-0.2-1.2-0.1-1.6,0.3l-7.4,7.4c-0.2,0.2-0.3,0.4-0.4,0.7l-0.1,0.5C46.3,9.5,42,8.2,37.3,8.2
		c-13.6,0-24.6,11-24.6,24.6s11,24.6,24.6,24.6s24.6-11,24.6-24.6c0-4.7-1.3-9.1-3.6-12.8l0.5-0.1C59,19.7,59.2,19.6,59.4,19.4
		L59.4,19.4z M58.8,32.7c0,11.9-9.7,21.6-21.6,21.6c-11.9,0-21.6-9.7-21.6-21.6c0-11.9,9.7-21.6,21.6-21.6c4.5,0,8.6,1.4,12.1,3.7
		l-1.2,4.9l-1,1c-2.7-2.2-6.1-3.5-9.8-3.5c-8.5,0-15.5,7-15.5,15.5s6.9,15.5,15.5,15.5c8.5,0,15.5-6.9,15.5-15.5
		c0-3.7-1.3-7.2-3.5-9.8l1-1l4.9-1.2C57.5,24.1,58.8,28.3,58.8,32.7L58.8,32.7z M35.6,34.4c0.3,0.3,0.7,0.4,1.1,0.4
		c0.4,0,0.8-0.1,1.1-0.4l3.5-3.5c0.3,0.6,0.5,1.3,0.4,1.9c-0.4,2.4-2,4.4-4.4,4.4c-2.4,0-4.4-2-4.4-4.4c0-2.4,2-4.4,4.4-4.4
		c0.7,0,1.3,0.1,1.9,0.4l-3.5,3.5C35.1,32.8,35.1,33.8,35.6,34.4L35.6,34.4z M41.3,26.5c-1.2-0.8-2.6-1.2-4.1-1.2
		c-4.1,0-7.4,3.3-7.4,7.4s3.3,7.4,7.4,7.4s7.4-3.3,7.4-7.4c0-1.5-0.5-2.9-1.2-4.1l3.6-3.6c1.7,2.1,2.7,4.8,2.7,7.7
		c0,6.9-5.6,12.5-12.5,12.5s-12.5-5.6-12.5-12.5s5.6-12.5,12.5-12.5c2.9,0,5.6,1,7.7,2.7L41.3,26.5z M57.6,16.9l-6.1,1.5l1.5-6.1
		l4.6-4.6l0,3c0,0.8,0.7,1.5,1.5,1.5l3,0L57.6,16.9z"/>
</g>
<path fill="#FF000D" d="M57.6,17l-6.1,1.5l1.5-6.1l4.7-4.6l0,3c0,0.8,0.7,1.5,1.5,1.5l3,0L57.6,17z"/>
<path fill="#FF000D" d="M35.6,34.4c0.3,0.3,0.7,0.4,1.1,0.4c0.4,0,0.8-0.1,1.1-0.4l3.5-3.5c0.3,0.6,0.5,1.3,0.4,1.9
	c-0.4,2.4-2,4.4-4.4,4.4c-2.4,0-4.4-2-4.4-4.4c0-2.4,2-4.4,4.4-4.4c0.7,0,1.3,0.1,1.9,0.4l-3.5,3.5C35,32.8,35,33.8,35.6,34.4
	L35.6,34.4z"/>
</svg>
