<?xml version="1.0" encoding="utf-8"?>
<!-- Generator: Adobe Illustrator 17.1.0, SVG Export Plug-In . SVG Version: 6.00 Build 0)  -->
<!DOCTYPE svg PUBLIC "-//W3C//DTD SVG 1.1//EN" "http://www.w3.org/Graphics/SVG/1.1/DTD/svg11.dtd">
<svg version="1.1" id="Layer_1" xmlns="http://www.w3.org/2000/svg" xmlns:xlink="http://www.w3.org/1999/xlink" x="0px" y="0px"
	 viewBox="0 0 60 60" enable-background="new 0 0 60 60" xml:space="preserve">
<g>
	<path fill="#FFFFFF" d="M40.7,52.7H29.8c-0.9,0-1.7-0.7-1.7-1.7s0.7-1.7,1.7-1.7h10.8c0.9,0,1.7,0.7,1.7,1.7S41.6,52.7,40.7,52.7z"
		/>
	<path fill="#FFFFFF" d="M19.4,52.7c-0.8,0-1.5-0.6-1.6-1.4l-3-22.7c-1.4-9.5,2.2-19,9.5-24.9c2.7-2.2,4.9-3.4,5-3.4
		c0.5-0.3,1.1-0.3,1.6,0c0.1,0.1,2.4,1.4,5.3,3.7c7.1,5.9,10.6,15.4,9.2,24.7c-0.1,0.9-1,1.5-1.9,1.4c-0.9-0.1-1.5-1-1.4-1.9
		c1.3-8.2-1.8-16.5-8-21.7c-1.6-1.4-3.1-2.3-4-2.9c-0.8,0.5-2.2,1.4-3.7,2.6c-6.4,5.2-9.6,13.6-8.3,21.9c0,0,0,0,0,0l3,22.7
		c0.1,0.9-0.5,1.7-1.4,1.9C19.5,52.7,19.4,52.7,19.4,52.7z"/>
</g>
<path fill="#FFFFFF" d="M10.5,58.5c-0.3,0-0.5-0.1-0.8-0.2c-0.5-0.3-0.9-0.8-0.9-1.5v-9c0-3.1,1.2-6,3.4-8.3l4.1-4.2
	c0.4-0.5,1.1-0.6,1.7-0.4c0.6,0.2,1,0.7,1.1,1.4L21,50.5c0,0,0,0,0,0c0.2,0.7-0.1,1.5-0.7,1.9l-8.9,5.8
	C11.1,58.4,10.8,58.5,10.5,58.5z M16.3,40.2l-1.7,1.8c-1.6,1.6-2.4,3.7-2.4,5.9v5.9l5.4-3.5L16.3,40.2z"/>
<path fill="#FFFFFF" d="M49.5,58.5c-0.3,0-0.6-0.1-0.9-0.3l-8.9-5.8c-0.6-0.4-0.9-1.2-0.7-1.9c0,0,0,0,0-0.1l1.8-14.1
	c0.1-0.6,0.5-1.2,1.1-1.4c0.6-0.2,1.3,0,1.7,0.4l4.1,4.2c2.2,2.2,3.4,5.2,3.4,8.3v9c0,0.6-0.3,1.2-0.9,1.5
	C50.1,58.4,49.8,58.5,49.5,58.5z M42.4,50.2l5.4,3.5v-5.9c0-2.2-0.9-4.3-2.4-5.9l-1.7-1.7L42.4,50.2z"/>
<path fill="#FFFFFF" d="M30,60c-0.6,0-1.1-0.3-1.4-0.8l-4.7-7.3c-0.3-0.5-0.3-1.2,0-1.8l4.7-7.3c0.3-0.5,0.8-0.8,1.4-0.8
	c0.6,0,1.1,0.3,1.4,0.8l4.7,7.3c0.3,0.5,0.3,1.2,0,1.8l-4.7,7.3C31.1,59.7,30.6,60,30,60z M27.3,51l2.7,4.2l2.7-4.2L30,46.8L27.3,51
	z"/>
<g>
	<path fill="#FFFFFF" d="M30,35.5c-4,0-7.2-3.2-7.2-7.2s3.2-7.2,7.2-7.2s7.2,3.2,7.2,7.2S34,35.5,30,35.5z M30,24.4
		c-2.1,0-3.9,1.7-3.9,3.9c0,2.1,1.7,3.9,3.9,3.9c2.1,0,3.9-1.7,3.9-3.9S32.1,24.4,30,24.4z"/>
	<path fill="#FFFFFF" d="M30,16.7H18.4c-0.9,0-1.7-0.7-1.7-1.7s0.7-1.7,1.7-1.7H30c0.9,0,1.7,0.7,1.7,1.7
		C31.7,15.9,30.9,16.7,30,16.7z"/>
	<path fill="#FFFFFF" d="M41.5,16.7h-5.1c-0.9,0-1.7-0.7-1.7-1.7s0.7-1.7,1.7-1.7h5.1c0.9,0,1.7,0.7,1.7,1.7
		C43.1,15.9,42.4,16.7,41.5,16.7z"/>
</g>
</svg>
