<?xml version="1.0" encoding="utf-8"?>
<!-- Generator: Adobe Illustrator 17.1.0, SVG Export Plug-In . SVG Version: 6.00 Build 0)  -->
<!DOCTYPE svg PUBLIC "-//W3C//DTD SVG 1.1//EN" "http://www.w3.org/Graphics/SVG/1.1/DTD/svg11.dtd">
<svg version="1.1" id="Layer_1" xmlns="http://www.w3.org/2000/svg" xmlns:xlink="http://www.w3.org/1999/xlink" x="0px" y="0px"
	 viewBox="0 0 100 100" enable-background="new 0 0 100 100" xml:space="preserve">
<path fill="#222222" d="M75.5,85.8l-5.6-5.6C72.5,75.3,74,70,74,64.6V64h3v-3h-3V47.5c0-0.8-0.7-1.5-1.5-1.5H62v-9
	c0-0.8-0.7-1.5-1.5-1.5H56V31C56,18.6,45.9,8.5,33.5,8.5S11,18.6,11,31v4.5H6.5c-0.8,0-1.5,0.7-1.5,1.5v10.5V55v7.5v7.5v7.5v4.5
	c0,4.1,3.4,7.5,7.5,7.5h24.7c3.4,3.3,7.4,6.3,12.1,8.8c0.2,0.1,0.5,0.2,0.7,0.2s0.5-0.1,0.7-0.2c7.6-4,13.5-9.4,17.5-15.4l5.1,5.1
	H68v3h9c0.8,0,1.5-0.7,1.5-1.5v-9h-3L75.5,85.8L75.5,85.8z M71,64.6c0,4.6-1.2,9.2-3.4,13.4L65,75.4c1.6-3.6,2.6-7.4,2.9-11.4H71
	V64.6z M65,61H50c-0.6,0-1.2,0.4-1.4,0.9c-0.2,0.6-0.1,1.2,0.3,1.6l12.4,12.4c-2.6,4.8-6.5,8.9-11.4,11.8c-9.3-5.4-15-15.3-15-26.1
	V55h30L65,61L65,61z M53.6,64h11.3c-0.2,3.2-1,6.2-2.2,9.1L53.6,64z M14,31c0-10.7,8.7-19.5,19.5-19.5S53,20.3,53,31v4.5h-4.5V31
	c0-8.3-6.7-15-15-15s-15,6.7-15,15v4.5H14V31z M45.5,35.5h-24V31c0-6.6,5.4-12,12-12s12,5.4,12,12V35.5z M8,64h9v4.5H8V64z M17,61
	h-9v-4.5h9V61z M8,71.5h9v4.5H8V71.5z M17,53.5h-9V49h9V53.5z M12.5,86.4c-2.5,0-4.5-2-4.5-4.5v-3h10.5c0.8,0,1.5-0.7,1.5-1.5v-7.5
	v-7.5V55v-7.5c0-0.8-0.7-1.5-1.5-1.5H8v-7.5H59V46H27.5c-0.8,0-1.5,0.7-1.5,1.5v17.1c0,7.8,3,15.4,8.5,21.9
	C34.5,86.4,12.5,86.4,12.5,86.4z M50,95.2c-13.2-7.3-21-18.7-21-30.7V49h42v12h-3v-7.5c0-0.8-0.7-1.5-1.5-1.5h-33
	c-0.8,0-1.5,0.7-1.5,1.5v8.2c0,12.1,6.6,23.3,17.3,29.1c0.2,0.1,0.5,0.2,0.7,0.2s0.5-0.1,0.7-0.2c5.5-3,9.9-7.4,12.8-12.6l2.5,2.5
	C62.5,86.3,57,91.4,50,95.2z"/>
<rect x="80" y="61" fill="#222222" width="3" height="3"/>
<rect x="86" y="61" fill="#222222" width="3" height="3"/>
<rect x="91.9" y="61" fill="#222222" width="3" height="3"/>
<rect x="86" y="20.5" fill="#222222" width="3" height="3"/>
<rect x="91.9" y="20.5" fill="#222222" width="3" height="3"/>
<path fill="#222222" d="M91.9,35.5H74.6l3.4-3.4L75.9,30l-6,6c-0.6,0.6-0.6,1.5,0,2.1l6,6l2.1-2.1l-3.4-3.5h17.4V35.5z"/>
<path fill="#222222" d="M85.5,45.6l-2.1-2.1l-6,6c-0.6,0.6-0.6,1.5,0,2.1l6,6l2.1-2.1L82.1,52h12.9v-3H82.1L85.5,45.6z"/>
<path fill="#222222" d="M66.9,29.1L69,27l-3.4-3.5h17.4v-3H65.6l3.4-3.4L66.9,15l-6,6c-0.6,0.6-0.6,1.5,0,2.1L66.9,29.1z"/>
<path fill="#FF0000" d="M14,31c0-10.7,8.7-19.5,19.5-19.5S53,20.3,53,31v4.5h-4.5V31c0-8.3-6.7-15-15-15s-15,6.7-15,15v4.5H14V31z"
	/>
<rect x="8" y="49" fill="#FF0000" width="9" height="4.5"/>
<rect x="8" y="56.5" fill="#FF0000" width="9" height="4.5"/>
<rect x="8" y="64" fill="#FF0000" width="9" height="4.5"/>
<rect x="8" y="71.5" fill="#FF0000" width="9" height="4.5"/>
<path fill="#FF0000" d="M50,95.2c-13.2-7.3-21-18.7-21-30.7V49h42v12h-3v-7.5c0-0.8-0.7-1.5-1.5-1.5h-33c-0.8,0-1.5,0.7-1.5,1.5v8.2
	c0,12.1,6.6,23.3,17.3,29.1c0.2,0.1,0.5,0.2,0.7,0.2s0.5-0.1,0.7-0.2c5.5-3,9.9-7.4,12.8-12.6l2.5,2.5C62.5,86.3,57,91.4,50,95.2z"
	/>
<path fill="#FF0000" d="M71,64.6c0,4.6-1.2,9.2-3.4,13.4L65,75.4c1.6-3.6,2.6-7.4,2.9-11.4H71V64.6z"/>
</svg>
