<?xml version="1.0" encoding="utf-8"?>
<!-- Generator: Adobe Illustrator 17.1.0, SVG Export Plug-In . SVG Version: 6.00 Build 0)  -->
<!DOCTYPE svg PUBLIC "-//W3C//DTD SVG 1.1//EN" "http://www.w3.org/Graphics/SVG/1.1/DTD/svg11.dtd">
<svg version="1.1" id="Layer_1" xmlns="http://www.w3.org/2000/svg" xmlns:xlink="http://www.w3.org/1999/xlink" x="0px" y="0px"
	 viewBox="0 0 60 60" enable-background="new 0 0 60 60" xml:space="preserve">
<g>
	<path fill="#FEFEFE" d="M30.2,46.3c-9.6,0-19.2,0-28.8,0c-0.5,0-0.6-0.1-0.6-0.6c0-10.3,0-20.7,0-31c0-0.5,0.1-0.6,0.6-0.6
		c19.2,0,38.4,0,57.6,0c0.5,0,0.6,0.1,0.6,0.6c0,10.3,0,20.7,0,31c0,0.4-0.1,0.6-0.5,0.6C49.4,46.3,39.8,46.3,30.2,46.3z"/>
	<path fill="#AE0000" d="M33.8,28.8c0,0.1,0.1,0.2,0.1,0.3c0.8,0.2,0.5-0.5,0.6-0.9c0-0.2,0-0.4,0.1-0.6c0.2-0.4,0.2-0.8,0.5-1.2
		c0.1-0.2,0.3-0.3,0.5-0.3c0.1,0.1,0.1,0.2,0.1,0.3c0,0.1,0,0.2,0,0.3c-0.1,0.3-0.2,0.6-0.2,0.9c0,0.1,0,0.1-0.1,0.2
		c-0.5,1.4-0.7,2.9-1.1,4.3c-0.1,0.3-0.2,0.5-0.5,0.6c-0.4,0.1-0.8-0.1-1.1,0.2c0-0.6-0.1-1.2-0.1-1.8c0-0.3-0.1-0.7-0.3-0.9
		c-0.1-0.1-0.1-0.2-0.1-0.3c-0.1-0.3,0.4-0.6,0.1-1c0,0-0.1-0.1-0.1-0.1c-0.2-0.2-0.4-0.1-0.5,0.1c-0.1,0.2-0.1,0.4-0.1,0.5
		c-0.3,0.7-0.3,1.4-0.4,2.1c-0.2,0.9-0.6,1.4-1.5,1.5c-0.1,0-0.1,0-0.2,0c-0.1-0.1-0.1-0.2-0.1-0.3c0-0.1,0-0.2,0.1-0.3
		c0.7-0.4,0.5-1.1,0.7-1.7c0.2-0.5,0.3-1.1,0.4-1.7c0.2-0.8,0.3-1.6,0.5-2.3c0.2-0.8,0.5-1.1,1.3-1.1c0.3,0,0.5-0.2,0.8-0.2
		c0.2,0,0.2,0.1,0.2,0.3c-0.4,0.9,0,1.8,0.1,2.7C33.5,28.7,33.8,28.6,33.8,28.8z"/>
	<path fill="#AE0000" d="M45.3,30c0,0,0-0.1,0-0.1c0.1-0.1,0.1-0.3,0.1-0.5c0-0.3-0.1-0.4-0.4-0.5c-0.2-0.1-0.5,0.1-0.5,0.3
		c-0.2,0.7-0.6,1.3-0.6,2.1c0,0.4,0,0.8-0.2,1.1c-0.1,0.3-0.3,0.5-0.6,0.2c-0.1-0.1-0.1-0.3-0.1-0.4c0.1-0.5,0.2-0.9,0.2-1.4
		c0-0.1,0-0.1,0-0.2c0.3-1,0.5-2.1,0.7-3.1c0.1-0.2,0.1-0.5,0.3-0.7c0.3-0.4,0.8-0.6,1.2-0.7c0.2-0.1,0.4-0.3,0.5-0.5
		c0.1,0,0.2,0,0.3,0c0.2,0.1,0.2,0.3,0.3,0.4c0,0.2,0,0.5,0.1,0.7c0.1,0.4,0,0.8,0.2,1.2c0,0.2,0,0.4,0.1,0.7c0,0.1,0.1,0.2,0.1,0.3
		c0.6,0.1,0.4-0.4,0.5-0.6c0.3-0.7,0.3-1.5,0.6-2.2c0.2-0.3,0.5-0.4,0.9-0.5c0.2-0.1,0.4,0,0.3,0.3l0,0c-0.1,0.1-0.2,0.2-0.3,0.3
		c-0.3,0.3-0.4,0.8-0.5,1.2c-0.2,0.9-0.4,1.9-0.6,2.8c-0.2,0.7-0.3,1.4-0.5,2.1c-0.1,0.3-0.3,0.5-0.6,0.6c-0.4,0.1-0.7,0.1-1.1,0.3
		c-0.1,0-0.1,0-0.2,0c0-0.1,0-0.3,0-0.4C45.9,31.7,45.6,30.9,45.3,30z"/>
	<path fill="#AE0101" d="M30.4,24.4c0,0.1,0,0.2,0.1,0.2c-0.1,1.3-0.6,2.6-0.9,3.9c-0.2,0.7-0.3,1.4-0.4,2.2c-0.3,1.8-1.7,2.4-3,2.5
		c-0.7,0.1-1.3-0.1-2-0.2c-0.3,0-0.5-0.1-0.8,0c-0.2,0-0.3-0.1-0.4-0.3c0.2-0.8,0.5-1.7,0.9-2.5c0.1-0.2,0.2-0.3,0.1-0.5
		c-0.1-0.1-0.1-0.3,0-0.5c0.4-0.8,0.4-1.7,0.6-2.6c0.3-1.1,1-2,1.9-2.6c0.2-0.1,0.4-0.2,0.6-0.2c0.3,0,0.6,0,0.9,0
		c0.1,0,0.1,0,0.2,0c0.3,0.2,0.7,0.3,0.3,0.7c-0.1,0.1-0.2,0.1-0.3,0.1c-0.1,0-0.1,0-0.1-0.1c0,0-0.1-0.1-0.1-0.1
		c0-0.1-0.1-0.1-0.2-0.2c-0.5-0.1-0.9,0-1.1,0.5c-0.7,2.1-1.1,4.3-1.6,6.4c-0.1,0.3,0,0.5,0.2,0.7c0,0.1,0.1,0.1,0.1,0.2
		c0.5,0.6,1.2,0.6,1.6-0.1c0.1-0.2,0.1-0.3,0.3-0.4c0.4-0.5,0.9-1,0.9-1.7c0.1-0.6,0.1-1.3,0.3-1.9c0.4-0.8,0.3-1.8,0.9-2.5
		c0.1-0.1,0-0.3,0.1-0.5C29.5,24.6,29.8,24.4,30.4,24.4z"/>
	<path fill="#FAFAFA" d="M18.4,34.1C18.3,34,18.1,34,18,33.9c-0.2-0.4,0-0.8,0-1.2c0.5-1,0.7-2.2,0.9-3.3c0.1-0.5,0.1-1.1,0.4-1.5
		c0.1,0,0.2,0,0.1,0.2c0.1-0.1,0-0.2,0.1-0.3c0-0.1,0-0.3,0-0.5c0-0.1,0.1-0.3,0-0.4c-0.4-0.2-0.7-0.1-1.1-0.1
		c-0.3,0-0.6,0.1-0.9,0.1c-1,0-1.1,0.2-1,1.2c0.1,0,0.2,0.1,0.2,0.1c0.2,0,0.3-0.2,0.5-0.2c0.1,0,0.2,0,0.3,0c0.5,0,1,0.1,1.2,0.6
		c0.2,0.6,0.2,1.2-0.3,1.7c-0.4-0.1-0.2-0.4-0.1-0.6c0.1-0.3,0.1-0.6,0-0.9c0-0.1-0.2-0.2-0.2,0c0,0.3-0.1,0.5-0.3,0.7
		c-0.1,0-0.1,0-0.2,0c-0.1-0.1-0.1-0.2-0.1-0.3c0-0.3-0.3-0.4-0.6-0.4c-0.2,0-0.4,0-0.7,0c-0.4,0-0.6-0.2-0.5-0.7
		c0.1-0.5,0.2-1,0.4-1.5c0.3-0.4,0.7-0.3,1.1-0.3c0.2,0,0.5,0,0.7,0c0.3-0.1,0.5-0.3,0.1-0.5c-0.9,0-1.9,0-2.8,0
		c-0.3,0-0.6,0-0.6,0.3c-0.2,0.7-0.4,1.5-0.5,2.3c-0.1,0.3-0.1,0.7-0.4,0.9c-0.3,0-0.3-0.2-0.3-0.4c-0.1-0.5,0.1-1,0.3-1.4
		c0-0.2,0.3-0.4,0-0.6c-0.1-0.1-0.1-0.2-0.2-0.3c0-0.2,0-0.4,0.2-0.6c0,0,0.1-0.1,0.1-0.1c0.2,0,0.3-0.2,0.3-0.4
		c0-0.1,0.1-0.2,0.2-0.3c0.1-0.1,0.2-0.2,0.2-0.3c0-0.1,0.1-0.2,0.1-0.3c0.2,0.5,0.6,0.5,1,0.5c2.5,0,4.9,0,7.4,0c0.5,0,1,0,1.3-0.6
		c-0.1,0.2-0.2,0.5-0.2,0.7c-0.1,0.1-0.4,0.2-0.3,0.4c-0.2,1-0.2,1-1.1,1.1c-0.3,0-0.4,0.2-0.5,0.4c-0.1,0.2,0,0.4-0.2,0.6
		c-0.3,0.1-0.3-0.1-0.4-0.3c0-0.4,0-0.7,0.2-1.1c0.4-0.3,0.9,0,1.3-0.3c0.1-0.2,0.1-0.3-0.1-0.4c-1.2-0.1-2.3,0-3.5,0
		c-0.2,0-0.4,0-0.5,0.2c-0.1,0.1-0.1,0.2-0.3,0.3c0.1,0,0.3,0,0.4,0c0.4,0,0.8-0.1,1,0.4c0,0.9-0.3,1.7-0.5,2.6
		c-0.3,1.2-0.5,2.4-0.8,3.6c0,0.1,0,0.2-0.1,0.3c-0.1,0.2-0.1,0.4-0.3,0.6c-0.2,0-0.2-0.1-0.2-0.3C18.4,33.5,18.7,33.8,18.4,34.1z"
		/>
	<path fill="#F7F7F7" d="M53.1,32.7c-0.2-0.7-0.8-0.3-1.2-0.4c-0.4-1.1,0-1.9,1.2-1.9c0.3,0,0.6-0.1,0.8,0c-0.3,0.4-0.7,0.3-1.1,0.4
		c-0.4,0.1-0.9,0.8-0.7,1.2c0.1,0.2,0.4,0.1,0.5,0.1c0.9,0,1.3,0.3,1.3,1c0,0.8-0.5,1.4-1.3,1.4c-2.1,0-4.2,0-6.3,0
		c-0.6,0-0.8-0.7-1.2-0.5c-0.4,0.1-0.6,0.5-1.1,0.5c-3.5,0-7.1,0.1-10.6-0.1c-0.8,0-1.5-0.2-2.4,0c-0.6,0.2-1.4,0.2-2-0.3
		c-0.1-0.1-0.3,0-0.4,0c-1.3,0.5-2.7,0.5-4.1,0.3c-0.9-0.1-1.6-0.6-1.7-1.2c0.6,0.3,1.1,0.8,1.8,0.8c1.3,0.1,2.6,0.2,3.8-0.3
		c0.4-0.1,0.7-0.2,1,0.1c0.6,0.4,1.3,0.4,2,0.2c0.1-0.1,0.2-0.1,0.2-0.2c0.3-0.1,0.4-0.6,0.8-0.4c0.1,0,0.1,0.1,0.2,0.2
		c0.3,0.5,0.8,0.7,1.3,0.6c1.2-0.2,2.3,0,3.5,0c1.6,0,3.2-0.2,4.8-0.1c0.3,0,0.6,0,0.9,0c0.7,0.2,1.4,0.1,1.9-0.6
		c0.2-0.3,0.4-0.2,0.6-0.1c0,0,0.1,0.1,0.1,0.1c0.2,0.2,0.5,0.3,0.8,0.3c2,0,3.9,0,5.9,0C53.2,33.9,53.4,33.4,53.1,32.7z"/>
	<path fill="#D8D8D8" d="M35.3,33.5c0.2,0.2,0.4,0.1,0.6,0.1c2,0,4,0,6,0c0.1-0.1,0.1-0.3,0.2-0.3c0.2,0,0.1,0.2,0.2,0.3
		c1.8,0,1.8,0,2.3-1.7c0.1-0.4,0.2-0.9,0.3-1.4c0.3,0.3,0.2,0.7,0.2,1.1c0.2,0.8-0.1,1.5-0.5,2.2c-0.2,0.4-0.6,0.5-1,0.5
		c-0.9-0.1-1.9-0.1-2.8-0.1c-1.3,0-2.7,0.2-4,0.1c-1.1-0.1-2.2,0-3.2,0c-0.4,0-0.9,0.1-0.8-0.6c0.3-0.3,0.7-0.2,1.1-0.2
		c0.3,0,0.7,0.1,1-0.2C35.2,33.1,35.2,33.3,35.3,33.5z"/>
	<path fill="#AD0203" d="M37.7,32.4L37.7,32.4L37.7,32.4c0.4,0.3,0.8,0.1,1.2,0.2c0.2,0,0.5-0.2,0.5,0.2l0,0
		c-0.2,0.3-0.6,0.3-0.9,0.3c-0.9,0-1.8-0.2-2.6,0c-0.2-0.1-0.1-0.3,0-0.4c0.7-1.1,1-2.3,1.1-3.6c0.2-1.3,0.6-2.6,1.7-3.5
		c0.1-0.1,0.2-0.1,0.3-0.1c0.2,0,0.2,0.1,0.2,0.3c-0.1,0.1-0.1,0.2-0.2,0.3c-0.4,0.7-0.4,1.4-0.6,2.1c-0.3,0.9-0.4,1.9-0.7,2.8
		C37.6,31.5,37.6,31.9,37.7,32.4z"/>
	<path fill="#AF0203" d="M43.5,25.6c0,0.2,0,0.5-0.1,0.7c-0.1,0-0.1-0.1-0.2-0.1c-0.5,0.4-0.7,1-0.8,1.6c-0.2,1.2-0.4,2.5-0.8,3.7
		c-0.1,0.5-0.4,0.9-0.7,1.3c-0.2,0.3-0.5,0.3-0.8,0.4c-0.1,0-0.2-0.1-0.1-0.2c0-0.1,0-0.2,0-0.2c0.4-0.6,0.4-1.3,0.6-1.9
		c0.1-0.3,0-0.7,0.2-1c0.2-0.6,0.3-1.2,0.4-1.8c0-0.4,0.2-0.8,0.3-1.2c0.1-0.2,0.1-0.3,0.1-0.5C42,25.6,42.7,25.5,43.5,25.6z"/>
	<path fill="#AE0001" d="M30.4,24.4c-0.4,0.2-0.8,0.3-0.6,0.9c0,0.1,0,0.3,0,0.3c-0.6,0.7-0.5,1.6-0.9,2.4c-0.3,0.7-0.5,1.6-0.3,2.4
		c0,0.1,0,0.2,0,0.3c-0.8-0.1-0.3,1.2-1.2,1.1c-0.2-0.3-0.1-0.6,0-0.8c0.6-1.6,0.7-3.4,1.1-5c0.1-0.4-0.1-0.8,0-1.2
		c0.5-0.3-0.1-0.4-0.1-0.5c0.7-0.2,1.3,0,2,0.1C30.3,24.3,30.3,24.4,30.4,24.4z"/>
	<path fill="#F7F7F7" d="M6,34.3c-0.4,0-0.4-0.3-0.4-0.6c0-1.1,0.4-2.1,0.6-3.2c0.5-2.1,1-4.2,1.5-6.3c0-0.1,0.1-0.3,0.2-0.5
		c0.2,0.4-0.3,0.8,0.1,1.2c0.3,0.3,0.1,0.6,0,0.9c-0.2,1-0.5,2-0.7,3.1C7.1,29.3,7,29.8,7,30.4c0,0.2,0,0.4-0.1,0.6
		c-0.2,0.5-0.3,1.1-0.4,1.6c0,0.1-0.1,0.2-0.1,0.3c0,0.1,0,0.2,0,0.2c0,0.1,0.1,0.1,0.2,0.1c1.1,0,2.3,0.1,3.4-0.1
		c0.2,0,0.4-0.1,0.6,0c0.2,0.1,0.5-0.1,0.5,0.4c-0.3,0.3-0.7,0.3-1.1,0.3c-1.1,0-2.3,0-3.4,0C5.8,33.6,6,34,6,34.3z"/>
	<path fill="#B00102" d="M48.5,33.2c0-0.1,0-0.3,0-0.4c0.4-0.3,0.5-0.8,0.5-1.3c0.2-0.8,0.4-1.6,0.5-2.4c0-0.1,0-0.1,0.1-0.2
		c0.3-0.7,0.3-1.5,0.5-2.2c0.2-0.8,0.8-0.9,1.4-1c0.3-0.1,0.6,0,0.8,0c0.3,0.1,0.7-0.2,0.9,0.3c-0.4,0.3-0.8,0.1-1.2,0.2
		c-0.5,0-0.6,0.2-0.8,0.7c-0.5,1.3-0.4,2.7-1,3.9c-0.2,0.3-0.2,0.7-0.2,1.2c0,0.3,0,0.5-0.1,0.8c-0.4,0.3-0.9,0.3-1.2,0.5
		C48.6,33.2,48.6,33.2,48.5,33.2z"/>
	<path fill="#F8F8F8" d="M39.6,25.6c0-0.2-0.1-0.4-0.4-0.4c-0.7,0-1.4-0.1-2,0.1c-0.1,0-0.2,0-0.3,0.1c-0.1,0-0.1,0-0.2,0
		c0,0,0,0-0.1,0c-0.5-0.3-1.1,0-1.8-0.3c1.7,0,3.2,0,4.8,0c0.5,0,0.7,0.3,0.7,0.8c0,0.5-0.1,0.9-0.2,1.3c-0.3,1.4-0.6,2.7-0.9,4.1
		c0,0.1-0.1,0.2-0.1,0.3c0,0.2-0.1,0.5,0.2,0.5c0.3,0,0.3-0.2,0.3-0.5c0.4-1.9,0.8-3.8,1.2-5.8c0-0.1,0-0.2,0.3-0.3
		c-0.1,0.5-0.2,1-0.3,1.4c-0.3,1.6-0.6,3.1-0.9,4.7c-0.1,0.6-0.3,0.8-0.9,0.7c-0.1,0-0.2,0-0.3,0c-0.2-0.3-0.1-0.6-0.1-0.9
		c0.3-1.6,0.7-3.1,1-4.7C39.8,26.3,40,25.9,39.6,25.6z"/>
	<path fill="#DADADA" d="M53.1,32.7c0.5,0.3,0.5,1,0,1.3c-0.2,0.1-0.4,0.2-0.6,0.2c-2.1,0-4.2,0-6.2,0c-0.4,0-0.6-0.1-0.7-0.5
		c2.1,0,4.2,0,6.4,0C52.9,33.6,52.9,33.6,53.1,32.7z"/>
	<path fill="#F6F6F6" d="M18.4,34.1c0-0.3,0-0.7,0-1.1c0.1,0.2,0.2,0.3,0.3,0.5c0.6-0.4,1.2-0.1,1.8-0.2c0.1,0,0.1,0,0.2,0
		c0.1,0.1,0.1,0.2,0.1,0.3c-0.5,0.4-1.1,0.1-1.8,0.3c0.6,0.1,1.1,0.1,1.6,0c0.5-0.1,0.6-0.4,0.6-0.8c0.4-1.7,0.7-3.4,1.1-5.1
		c0.2-0.8,0.5-1,1.4-0.9c0,0.2-0.1,0.4-0.1,0.7c-0.2,0.1-0.5-0.2-0.5,0.2c-0.3,1.3-0.5,2.6-0.8,3.9c-0.1,0.3-0.2,0.5-0.3,0.7
		c-0.2,0.4-0.1,1-0.4,1.4c-0.1,0.2-0.3,0.5-0.5,0.5C20.2,34.5,19.2,34.8,18.4,34.1z"/>
	<path fill="#F6F6F6" d="M6,34.3c-0.1-0.2-0.4-0.4-0.2-0.7c0-0.1,0.2,0,0.3,0c0.2,0.4,0.6,0.3,1,0.3c1.8,0,3.5,0.1,5.2-0.5
		c0.1,0,0.1,0,0.2,0.1c0.3,0.3,0.7,0.4,1.2,0.4c1,0,1.9,0,2.9,0c0.8,0,1.1-0.5,0.7-1.2c-0.1-0.1-0.1-0.3,0-0.4
		c0.1-0.2,0.3-0.1,0.5,0c0.2,0.1,0.2,0.3,0.3,0.4c0.1,0.4-0.1,0.8-0.1,1.2c-0.3,0.3-0.6,0.7-1.1,0.7c-1-0.2-1.9,0-2.9-0.1
		c-0.4,0-0.8,0.1-1.2-0.1l0,0c-0.3-0.2-0.5-0.5-0.9-0.3c0,0-0.1,0-0.1,0c-0.3,0.2-0.6,0.2-0.9,0.3l-0.1,0l-0.1,0
		c-1.5,0.1-3,0.1-4.5,0C6.1,34.4,6,34.3,6,34.3z"/>
	<path fill="#F8F8F8" d="M50.1,25.3c0,0-0.1,0.1-0.1,0.1c-0.5-0.4-1.2-0.2-1.7-0.4c1.5,0,2.9,0,4.4,0c0.6,0,1.2,0,1.7,0
		c0.4,0,0.6,0.2,0.8,0.5c0.4,1.1-0.1,1.9-1.2,2c-0.2,0-0.3,0-0.5,0c-0.3,0-0.5,0-0.5,0.4c0,0.4,0.3,0.4,0.5,0.4
		c0.4,0,0.8,0.1,0.9,0.5c0.1,0.4,0.3,0.9-0.2,1.3c-0.2-0.2,0-0.5,0-0.7c0-0.4-0.2-0.7-0.6-0.7c-0.3-0.1-0.6,0-0.8-0.2
		c-0.3-0.9,0-1.4,0.9-1.4c1-0.1,1.3-0.5,1.2-1.2c0-0.1-0.1-0.1-0.1,0c0,0,0,0.1,0,0.1c0,0.2-0.1,0.3-0.2,0.4c-0.2,0-0.2-0.1-0.3-0.3
		c0-0.1-0.1-0.2-0.1-0.3c0-0.2-0.1-0.3-0.3-0.3c-1.2,0-2.4,0.1-3.5-0.1C50.1,25.5,50.1,25.4,50.1,25.3c1.3-0.1,2.5,0,3.3-0.1
		C52.7,25.3,51.4,25.2,50.1,25.3z"/>
	<path fill="#EEEEEE" d="M32.9,33.6c-0.1,0.2-0.1,0.3,0.1,0.4c0.2,0.1,0.5,0.2,0.8,0.1c2.3-0.1,4.5,0.1,6.8,0c1.1-0.1,2.1-0.1,3.2,0
		c0.6,0,1-0.2,1.1-0.9c0.1-0.6,0.5-1,0.4-1.6c0.3,0.6,0,1.3,0.3,1.9c-0.1,0.1-0.4-0.2-0.5,0.2c-0.3,0.8-1.1,0.8-1.8,0.7
		c-1.4-0.2-2.9-0.1-4.3,0c-0.9,0.1-1.9,0.1-2.8,0c-0.5-0.1-1-0.1-1.5,0c-1.2,0.2-2.1,0-2.2-0.9C32.6,33.4,32.8,33.4,32.9,33.6z"/>
	<path fill="#D9D9D9" d="M23.7,27.1c-0.1,0-0.3,0.1-0.4,0.1c-0.5-0.1-0.7,0.3-0.7,0.7c-0.4,1.7-0.7,3.4-1.1,5.2
		c-0.2,1.1-0.2,1.1-1.3,1.1c-0.3,0-0.7,0-1,0c-0.2,0-0.4-0.1-0.4-0.4c0-0.2,0.3-0.1,0.4-0.2c0.5-0.1,1.1,0.1,1.6-0.1
		c0.1-0.2,0-0.4,0.2-0.5c0.3-1,0.5-2,0.7-3c0.2-0.9,0.4-1.7,0.6-2.6c0.2-0.6,0.7-0.8,1.4-0.6C23.7,26.9,23.7,27,23.7,27.1z"/>
	<path fill="#8D0001" d="M23.3,32.9c0.2-0.4,0.5-0.2,0.8-0.2c1.1,0.2,2.1,0.4,3.2,0c0.8-0.3,1.4-0.8,1.5-1.7
		c0.3-1.2,0.4-2.4,0.8-3.6c0.3-0.9,0.3-1.9,0.8-2.8c0.2,0.2,0.2,0.4,0,0.5c-0.4,1.8-0.8,3.6-1.1,5.4c-0.1,0.7-0.3,1.4-0.8,1.9
		c-0.6,0.5-1.2,0.7-2,0.8c-0.8,0.1-1.6-0.1-2.4,0.1c-0.2,0.1-0.3,0.1-0.5,0C23.5,33.2,23.3,33.1,23.3,32.9z"/>
	<path fill="#F7F7F7" d="M46.8,28c-0.2-0.4-0.1-0.9-0.2-1.3c-0.1-0.2,0-0.5-0.1-0.7c0-0.1-0.1-0.3-0.1-0.4c-0.8,0.1-1.6,0-2.4,0.2
		c0-0.1,0-0.3,0-0.4c0.7-0.1,1.5,0,2.2-0.1c-0.7,0.1-1.5-0.1-2.2,0.1c-0.7-0.2-1.5-0.1-2.2-0.3c0.7,0,1.5,0,2.2,0c0.8,0,1.6,0,2.4,0
		c0.5,0,0.9,0.3,1.2,0.5c0.3,0.2,0,0.6-0.2,0.9c-0.5,0-0.3-0.5-0.6-0.8c0.2,0.7,0.3,1.3,0.3,2c0.1-0.2-0.2-0.7,0.3-0.8
		c0,0.1,0,0.2,0.1,0.3c0.2,0.5-0.2,1-0.2,1.5c-0.1,0.2-0.2,0.4-0.4,0.4c0-0.1,0-0.2,0-0.4C46.8,28.5,46.9,28.2,46.8,28z"/>
	<path fill="#BC2529" d="M40.9,29.9c-0.2,0.7-0.1,1.5-0.4,2.2c-0.1,0.3-0.2,0.6-0.5,0.8c0.4-2.2,0.9-4.4,1.3-6.5
		c0.1-0.6,0.3-0.9,0.9-0.8c0.4,0.1,0.8,0,1.2,0c0,0,0,0,0,0c0,0,0,0,0,0.1c-0.6,0.2-1.3,0.2-1.7,0.8c-0.1,0.1-0.1,0.3-0.1,0.4
		c0,0.4-0.4,0.8-0.3,1.2C41.1,28.6,41.1,29.3,40.9,29.9z"/>
	<path fill="#F7F7F7" d="M32.9,33.6c-0.2,0-0.4,0-0.5-0.1c0,0,0,0,0,0c-0.3-0.3-0.1-0.8-0.3-1.2c-0.1-0.4,0-0.7-0.1-1.1
		c0-0.2,0-0.3,0-0.3c0,0.4-0.1,0.8-0.2,1.3c0,0.1,0,0,0,0.1c-0.4,1.5-0.4,1.5-1.9,1.5c-0.2,0-0.4,0-0.5-0.1c-0.1,0-0.1-0.1-0.2-0.1
		c-0.1-0.1-0.2-0.2-0.2-0.4c0-0.3,0.1-0.6,0.3-0.9c0.1,0,0.1-0.1,0.2-0.1c0.1,0.1,0.1,0.3,0,0.4c0,0.1,0,0.2-0.1,0.2
		c-0.1,0.2-0.1,0.4,0.1,0.4c0.4,0,0.9,0.1,1.3-0.1c0.1-0.1,0.1-0.3,0.1-0.5c0-0.1,0-0.1,0-0.2c0.2-1,0.4-1.9,0.6-2.9
		c0-0.1,0.1-0.2,0.2-0.2c0.3,0,0.3,0.2,0.3,0.4c0,0.1,0,0.1,0,0.2c0,0.3,0.1,0.6,0.2,0.9c0,0.1,0,0.1,0,0.2c0,0.2,0,0.4,0.1,0.7
		c0,0.1,0,0.3,0,0.4c0.1,0.3,0,0.5,0,0.8c0,0.1,0,0.2,0.2,0.3c0.6,0.1,1.1,0.2,1.7,0c0.1-0.1,0.2-0.3,0.4-0.4c0.1,0,0.1,0,0.2,0.1
		c0.1,0.1,0.1,0.3,0,0.4c0,0.3-0.3,0.4-0.6,0.4C34,33.6,33.5,33.6,32.9,33.6z"/>
	<path fill="#860405" d="M43.3,26c0,0.1,0,0.2,0,0.3c-0.2,1-0.3,2.1-0.7,3.1c-0.2,0.2,0,0.5-0.1,0.7c-0.1,0.8-0.2,1.6-0.5,2.4
		c-0.1,0.2-0.1,0.3-0.2,0.5c-0.2,0.1-0.4,0.2-0.5-0.1c0.4-2,0.8-4,1.3-5.9C42.8,26.6,42.7,26,43.3,26z"/>
	<path fill="#F9F9F9" d="M14.8,24.5c0,0.1,0,0.3,0,0.4c-0.4,0-0.3-0.4-0.5-0.5c0,0.3,0,0.7,0,1c-0.1,0.1,0.1,0.4-0.3,0.5
		c0,0-0.1,0-0.1,0c0,0-0.1-0.1-0.1-0.2c0-0.3,0.1-0.7,0-1c0-0.1-0.1-0.1-0.1-0.2c-0.1-0.1-0.2-0.3-0.3-0.4c-0.1,0-0.1-0.1-0.2-0.1
		c-0.1-0.1-0.3-0.1-0.4-0.3c0.1,0,0.3-0.1,0-0.2c-0.8-0.3-1.7-0.1-2.6-0.1c-0.5,0-1.1,0-1.6-0.2c0,0,0.1-0.1,0.1-0.1
		c1.6,0,3.1-0.2,4.7,0.2C14.1,23.5,14.6,23.8,14.8,24.5z"/>
	<path fill="#D7D7D7" d="M23.7,26.8c-1.1,0.1-1.3,0.2-1.5,1.3c-0.3,1.7-0.7,3.3-1.1,4.9c0,0,0,0.1,0,0.1c0,0-0.1,0-0.1,0
		c-0.2-0.2-0.2-0.4-0.1-0.7c0.3-1.4,0.6-2.7,0.8-4.1c0-0.2,0.1-0.5,0.4-0.6c0-0.3,0.1-0.6,0.1-0.9c0.1-0.2,0.2-0.3,0.4-0.3
		c0.9,0.2,1.2-0.3,1.2-1.1c0-0.1,0.1-0.1,0.1,0C24,25.9,24,26.4,23.7,26.8z"/>
	<path fill="#A70102" d="M43.2,32.5c0.2,0.1,0.3,0.1,0.4-0.2c0-0.2,0.2-0.5,0.1-0.7c-0.2-0.9,0.5-1.6,0.6-2.5c0-0.3,0.3-0.5,0.6-0.5
		c0.3,0,0.6,0.2,0.7,0.5c0.1,0.2,0.1,0.6-0.3,0.7c0-0.2-0.1-0.4-0.1-0.5c-0.4-0.2-0.4,0.1-0.5,0.3c-0.3,0.7-0.4,1.4-0.5,2.2
		c-0.1,0.6-0.2,1.2-0.9,1.4c-0.2,0.1-0.5,0.2-0.7,0.1c-0.2-0.2-0.1-0.4,0-0.6c0.1-0.1,0.2-0.2,0.4-0.2C43,32.4,43.1,32.5,43.2,32.5z
		"/>
	<path fill="#860808" d="M37.7,32.4c-0.5-0.2-0.3-0.7-0.3-1c0.4-1.6,0.8-3.2,1.2-4.9c0.1-0.2,0.1-0.5,0.4-0.6
		c0.1,0.6-0.2,1.1-0.2,1.6l0,0c-0.3,0.6-0.3,1.2-0.4,1.8C38.3,30.4,38,31.4,37.7,32.4z"/>
	<path fill="#BD2129" d="M23.3,29.7c0,0,0.1-0.1,0.1-0.1c0.3-0.7,0.4-1.5,0.6-2.3c0.1-0.6,0.3-1.2,0.5-1.8c0-0.3,0.1-0.5,0.3-0.7
		c0.2-0.3,0.4-0.5,0.8-0.6c0.1,0,0.1,0,0.2,0.1c0,0.1,0,0.1,0,0.2c-0.7,0.8-1.1,1.8-1.3,2.8c-0.3,1.4-0.6,2.9-1.1,4.3
		c-0.1,0.3-0.1,0.6-0.5,0.6c-0.1-0.1-0.1-0.2-0.1-0.4c0.1-0.2,0.1-0.5,0.1-0.7C22.9,30.6,22.9,30.1,23.3,29.7z"/>
	<path fill="#BE2A30" d="M42.9,32.5c-0.1,0-0.2,0.1-0.3,0.1c-0.3-0.6-0.1-1.2,0.3-1.7l0,0c0.1-0.2,0-0.5,0.1-0.7
		c0.3-1.4,0.6-2.8,0.9-4.1c0.1-0.2,0.3-0.3,0.5-0.1c-0.1,0.8-0.4,1.4-0.6,2.2c-0.1,0.8-0.4,1.6-0.5,2.4l0,0c-0.1,0.3-0.2,0.7-0.2,1
		C43.1,32,43.1,32.3,42.9,32.5z"/>
	<path fill="#F8EFEF" d="M42.9,30.9c-0.1,0.6-0.2,1.2-0.3,1.7c-0.1,0.2-0.2,0.3-0.1,0.5c0.5,0.1,1-0.2,1.5,0.1
		c-0.2,0.3-0.6,0.1-0.9,0.2c-0.3,0.1-0.6-0.1-0.8,0.1c-0.1-0.2-0.3-0.2-0.4,0c-0.1-0.1-0.3-0.2-0.4-0.2c0-0.1,0.1-0.2,0.2-0.3
		c0.2-0.1,0-0.4,0.2-0.5c0.2-0.8,0.4-1.7,0.5-2.5c0-0.1,0-0.1,0.1-0.1C42.7,30.3,42.6,30.7,42.9,30.9z"/>
	<path fill="#FCFCFC" d="M22,32.5c0.3-1.4,0.6-2.8,0.8-4.2c0-0.2,0.1-0.4,0.1-0.6c0.1-0.1,0.2-0.3,0.4-0.1c0.2,0.1,0.1,0.3,0.1,0.5
		c-0.2,0.8-0.3,1.7-0.5,2.5c-0.1,0.5-0.3,0.9-0.2,1.4c0,0.3-0.1,0.5,0,0.8c0,0.1,0,0.3-0.1,0.4c-0.2-0.1-0.3-0.3-0.3-0.5
		C22.4,32.1,22.2,32.5,22,32.5z"/>
	<path fill="#D7D7D7" d="M29.3,32.4c-0.1,0.3-0.2,0.6-0.3,0.9c-0.4,0.5-0.9,0.7-1.5,0.8c-1.2,0.2-2.3,0.2-3.5-0.1
		c-0.3-0.1-0.6-0.1-0.6-0.5c0.5-0.1,1-0.1,1.5,0c0.6,0.1,1.1,0.1,1.7,0c0.5-0.1,0.9-0.1,1.4-0.3c0.5-0.1,0.8-0.6,1.2-0.8
		C29.2,32.4,29.3,32.4,29.3,32.4z"/>
	<path fill="#D8D8D8" d="M38.4,32.3c-0.3,0-0.3-0.2-0.2-0.4c0.5-2,1-4.1,1.4-6.1c0.3,0,0.4,0.2,0.3,0.4c-0.4,2-0.8,4-1.5,6
		C38.5,32.2,38.4,32.2,38.4,32.3z"/>
	<path fill="#F9F4F4" d="M39.4,33.3c-0.1,0.3-0.4,0.2-0.6,0.2c-0.9,0-1.8,0-2.7,0c-0.5,0-0.7-0.2-0.8-0.5c-0.2-0.5,0-0.9,0.1-1.4
		c0.1-0.5,0.2-0.9,0.3-1.3c0.1-0.4,0.2-0.9,0.3-1.3c0.2-0.4,0-0.8,0.4-1.1c0.2,0,0.3,0.2,0.3,0.4c-0.1,0.8-0.2,1.5-0.4,2.2
		c0,0.1,0,0.1,0,0.2c-0.1,0.2-0.1,0.4-0.1,0.6c-0.1,0.3-0.2,0.6-0.2,0.9c0,0.2-0.1,0.4-0.1,0.6c0,0.1-0.1,0.2-0.1,0.3
		c0.1,0.2,0.3,0.2,0.4,0.1c0.9,0,1.7,0,2.6,0C39,33.1,39.3,33.1,39.4,33.3z"/>
	<path fill="#BD2327" d="M52.4,25.9c-0.3,0-0.7,0-1,0.1c-0.5,0.1-0.9,0.3-1.1,0.8c-0.3,0.7-0.3,1.5-0.5,2.3l0,0
		c-0.1,0.4-0.1,0.8-0.3,1.2c-0.1,0-0.2-0.1-0.2-0.2c0.3-1.4,0.6-2.8,0.9-4.1c0.2-0.2,0.4-0.4,0.7-0.4c1,0,2-0.1,3,0
		c0.1,0.3-0.2,0.3-0.4,0.3C53,25.8,52.7,25.7,52.4,25.9z"/>
	<path fill="#EEEEEE" d="M22.7,33.2c0-0.1,0-0.3,0-0.4c-0.1-0.2-0.1-0.3,0.1-0.4c0.2,0.3,0.4,0.6,0.6,1c0.2,0.7,0.8,0.7,1.2,0.7
		c1.4,0.1,2.9,0.3,4.2-0.5c0.1-0.1,0.3-0.1,0.4,0l0,0c0.4,0.3,0.9,0.4,1.4,0.4c0.3,0,0.7-0.1,1,0.2c-0.8,0.4-1.6,0.4-2.3-0.1
		c-0.2-0.2-0.4-0.2-0.7-0.1c-1.5,0.6-3,0.5-4.5,0.3c-0.6-0.1-1-0.4-1.3-0.9C22.8,33.3,22.7,33.2,22.7,33.2z"/>
	<path fill="#E2E2E2" d="M38.4,32.3c0.1-0.7,0.3-1.3,0.5-2c0.4-1.3,0.7-2.7,1-4.1c0-0.2,0-0.4-0.2-0.5c0,0,0-0.1,0-0.1
		c0.6-0.1,0.5,0.3,0.4,0.6c-0.4,1.8-0.8,3.6-1.2,5.3c-0.1,0.2-0.1,0.5-0.1,0.7C38.7,32.3,38.5,32.3,38.4,32.3z"/>
	<path fill="#850405" d="M28.4,32.4c0.9-1.1,0.8-2.5,1.2-3.7c0.3-1,0.5-2.1,0.7-3.1c0-0.2,0-0.3,0.2-0.4c0.1,0.7-0.2,1.3-0.3,1.9
		c-0.3,1.4-0.6,2.9-0.8,4.3c0,0.2-0.1,0.5-0.2,0.7c-0.1,0.2-0.1,0.4-0.4,0.4C28.6,32.5,28.5,32.5,28.4,32.4z"/>
	<path fill="#F7F7F7" d="M23.2,33.3c-0.1-0.3-0.4-0.6-0.4-0.9c-0.1-0.1-0.2-0.1-0.1-0.3c-0.3-0.7,0.1-1.4,0.2-2.1
		c0.1-0.6,0.3-1.2,0.4-1.9c0-0.2,0.2-0.7-0.4-0.4c0.2-0.5,0.4-0.2,0.7,0c-0.1,0.4-0.2,0.9-0.3,1.3c-0.1,0.2-0.1,0.5,0.1,0.7
		c-0.2,0.5-0.2,1-0.3,1.5c-0.1,0.2,0,0.5-0.1,0.7c0,0.1,0,0.2,0,0.4c0.1,0.1,0.1,0.2,0.1,0.4c0,0.2,0.1,0.2,0.2,0.2
		c0.1,0.1,0.2,0.2,0.3,0.3c0.1,0.1,0,0.2-0.1,0.2C23.4,33.4,23.3,33.4,23.2,33.3z"/>
	<path fill="#BC222A" d="M33.2,25.6C33,25.9,32.7,26,32.3,26c-0.7-0.1-1,0.4-1.1,0.9c-0.2,0.8-0.2,1.6-0.6,2.4
		c-0.2-0.1-0.1-0.3-0.2-0.4c0.2-0.9,0.3-1.9,0.6-2.8c0.5-0.6,1.2-0.5,1.9-0.6C33,25.5,33.1,25.5,33.2,25.6z"/>
	<path fill="#950C0E" d="M39.4,33.3c-1.1,0-2.3,0-3.4,0c-0.3,0-0.6-0.1-0.3-0.4c0.1,0,0.1,0.1,0.2,0.2c0.7-0.2,1.4-0.3,2.1-0.2
		c0.5,0.1,1,0.1,1.5-0.1C39.5,33,39.5,33.1,39.4,33.3z"/>
	<path fill="#F9F4F4" d="M51.1,32.3c-0.1,0-0.2-0.1-0.3-0.1c-0.1-0.1-0.1-0.1-0.1-0.2c0.2-0.8,0.1-1.8,0.6-2.5
		c0.6-0.2,1.2-0.1,1.8-0.1c0.1,0,0.1,0,0.2,0c0.1,0.1,0.2,0.2,0.2,0.4c-0.3,0.5-0.7,0.4-1.1,0.4c-0.6,0-0.8,0.2-0.9,0.7
		c-0.1,0.5-0.1,0.9-0.3,1.3C51.1,32.2,51.1,32.2,51.1,32.3z"/>
	<path fill="#850507" d="M43.2,33.1c0.6-0.2,0.7-0.8,0.8-1.3c0.1-0.7,0.3-1.3,0.5-2c0.1-0.2,0.2-0.5,0.4-0.6
		c0.2-0.1,0.3-0.1,0.4,0.2c-0.4,0-0.3,0.3-0.3,0.4c-0.1,0.4-0.2,0.8-0.3,1.3c-0.2,0.6-0.3,1.2-0.4,1.8l0,0
		C43.9,33.1,43.6,33.4,43.2,33.1z"/>
	<path fill="#C23339" d="M36.2,30.6c0.1-0.8,0.3-1.5,0.4-2.3c0.1-0.8,0.1-1.5,0.5-2.2c-0.1-0.5,0.2-0.7,0.7-0.6c0.4,0,0.8,0,1.2,0
		c0,0,0.1,0,0,0.1c0,0,0,0,0,0c0,0-0.1,0.1-0.1,0.1c-0.1,0.1-0.2,0.1-0.3,0.1c-0.8,0.1-1.2,0.5-1.3,1.3c-0.2,1-0.5,2-0.7,3
		C36.6,30.3,36.6,30.7,36.2,30.6z"/>
	<path fill="#81090A" d="M48.6,29.7c-0.2,1.1-0.5,2.2-0.7,3.2c-0.1,0.2-0.2,0.4-0.4,0.4c-0.6,0-1.1,0-1.7,0c0.1-0.5,0.6-0.3,0.9-0.4
		c0.5,0,0.8-0.2,0.9-0.7c0.1-0.2,0.2-0.5,0.3-0.8c0.3-0.5,0.2-1.2,0.6-1.7C48.5,29.7,48.6,29.7,48.6,29.7z"/>
	<path fill="#A00707" d="M33.8,28.8c-0.4-0.1-0.5-0.2-0.6-0.7c0-0.5-0.2-0.9-0.2-1.4c0-0.4,0.1-0.7,0.3-0.9c0,0,0.1,0,0.1,0
		C33.6,26.8,33.7,27.8,33.8,28.8z"/>
	<path fill="#F6F6F6" d="M33.7,25.6c-0.2-0.4-0.6-0.4-1-0.4c-0.4,0-0.7,0-1.1,0c-0.6-0.3-0.7-1-1.2-1.3l-0.1,0l-0.1,0
		c0-0.2,0.1-0.2,0.3-0.1c0.5,0.1,0.7,0.4,0.9,0.8c0.2,0.4,0.5,0.5,0.9,0.5c0.6,0,1.1-0.1,1.7,0.2c1,0.4,0.5,0.9,0.4,1.4
		C34,26.4,34.1,25.9,33.7,25.6z"/>
	<path fill="#F9F4F4" d="M53.6,28.7c0.5-0.1,0.6,0.2,0.7,0.6c0.1,0.3-0.1,0.6-0.1,0.9c-0.1,0.1-0.1,0.2-0.3,0.3
		c-0.4,0.1-0.7,0.2-1.1,0.1c-0.5,0-0.8,0.2-0.8,0.7c0,0.4-0.2,0.7-0.1,1c-0.1,0-0.2,0-0.3,0c-0.3-1.1,0.2-1.9,1.2-2
		c0.9-0.1,1.2-0.6,0.7-1.3C53.5,28.9,53.5,28.8,53.6,28.7z"/>
	<path fill="#D9D9D9" d="M53.6,28.9c0.3,0,0.4,0.2,0.4,0.5c0,0.4-0.2,0.7-0.5,0.8c-0.2,0.1-0.5,0.2-0.8,0.2c-0.6-0.1-0.9,0.2-1,0.8
		c-0.1,0.4-0.1,0.7-0.2,1.1c-0.2,0-0.3,0-0.5,0c0,0,0-0.1,0-0.1c0.3-0.2,0.2-0.6,0.3-0.9c0.3-1.1,0.3-1.1,1.5-1.2
		c0.6,0,0.7-0.2,0.6-0.8C53.5,29.1,53.5,29,53.6,28.9z"/>
	<path fill="#BF3232" d="M47.2,28.7c0.1-0.5,0.3-1,0.4-1.5c0.1-0.2,0.1-0.4,0.2-0.6c0.3-1.2,0.3-1.2,1.5-1.1c0.4,0,0.4,0.1,0.2,0.4
		c-0.3-0.3-0.5-0.3-1.1,0.2c-0.5,0.5-0.3,1.3-0.6,1.9C47.6,28.2,47.8,28.8,47.2,28.7z"/>
	<path fill="#FAFAFA" d="M30.5,23.7c-0.1,0-0.2,0-0.3,0.1c-1.3-0.6-2.7-0.4-4.1-0.3c-0.1,0-0.2,0-0.3,0.1c0,0-0.1,0-0.1-0.1
		c0.3-0.3,0.7-0.2,1.1-0.3c1.2-0.2,2.4-0.1,3.5,0.3C30.4,23.5,30.5,23.7,30.5,23.7z"/>
	<path fill="#CA4D4F" d="M25.6,24.3c-0.2,0.2-0.4,0.4-0.7,0.5c-0.1,0.1-0.1,0.1-0.2,0c0.1-0.5,0.5-0.8,1-0.9
		c1.4-0.3,2.7-0.4,4.1,0.1c-0.3,0.3-0.7,0.2-1.1,0.1c-0.8-0.1-1.5-0.1-2.3,0C26.2,24.2,25.9,24.2,25.6,24.3z"/>
	<path fill="#BD272C" d="M34.9,27.7c-0.2,0.1-0.1,0.4-0.1,0.5c-0.1,0.2-0.1,0.4-0.2,0.6c-0.1,0.3-0.3,0.3-0.5,0.2
		c0.3-0.6,0.3-1.3,0.6-2c0.1-0.3,0.1-0.6,0.3-0.8c0.2-0.4,0.4-0.7,0.9-0.6c0.2,0.5-0.5,0.5-0.6,0.8C35.1,26.9,35,27.3,34.9,27.7z"/>
	<path fill="#B31B1E" d="M26.4,24c1.2-0.3,2.3,0,3.5,0c0.2,0,0.3,0.1,0.4,0.3c-0.7,0.1-1.3,0-2-0.1c0,0-0.1,0-0.1,0
		c-0.4-0.1-0.7-0.1-1.1,0c-0.2,0-0.4,0-0.5,0.1c-0.3,0-0.5,0.4-0.8,0.1c0,0,0-0.1,0-0.1C25.9,24.1,26.2,24.1,26.4,24z"/>
	<path fill="#363636" d="M7.2,28.7c0.1-1.1,0.5-2.2,0.7-3.4C8,25.2,8,25,8,24.8c0-0.1,0.1-0.2,0.1-0.3c0.1,0,0.1,0,0.2,0
		c0.1,0.1,0.1,0.3,0.1,0.4c-0.2,1.2-0.6,2.4-0.8,3.7c0,0.2,0,0.6-0.4,0.7C7.1,29.1,7.1,28.9,7.2,28.7z"/>
	<path fill="#881518" d="M48.5,33.2c0,0,0.1,0,0.1,0c0.3-0.2,0.7-0.3,1.1-0.3c1,0.1,1.9,0.1,2.9,0c0.1,0,0.1,0.1,0.1,0.2
		c0,0.2-0.1,0.3-0.3,0.3c-1.2,0-2.5,0-3.7,0C48.6,33.3,48.6,33.2,48.5,33.2z"/>
	<path fill="#545454" d="M8.3,24.5c0,0-0.1,0-0.1,0c0.2-1,0.2-1,1.1-1c1.2,0,2.3,0,3.5,0.1c0.2,0.1,0.3,0.2,0.5,0.2
		C13.1,24,12.9,24,12.8,24c-0.9-0.2-1.8,0-2.6-0.1C9.4,23.9,8.8,24,8.3,24.5z"/>
	<path fill="#E1E1E1" d="M33.7,25.6c0.4,0.1,0.4,0.1,0.7,1.1c0,0.4-0.1,0.7-0.3,1.2C33.9,27,33.7,26.3,33.7,25.6z"/>
	<path fill="#DFDFDF" d="M47.5,26.9c-0.2,0.3,0,0.7-0.4,1c-0.1-0.8-0.2-1.5-0.3-2.3c0.6,0.1,0.3,0.8,0.7,1
		C47.5,26.7,47.5,26.8,47.5,26.9z"/>
	<path fill="#B40809" d="M45.3,30c0.5,0.8,0.9,1.7,0.4,2.7C45.5,31.8,45.4,30.9,45.3,30z"/>
	<path fill="#860808" d="M49.2,26c0.1-0.1,0.2-0.1,0.3-0.1c-0.1,1-0.4,2.1-0.7,3.1c0,0-0.1-0.1-0.1-0.1c-0.3-0.6,0-1.2,0-1.8
		C48.8,26.7,48.9,26.3,49.2,26z"/>
	<path fill="#BF232B" d="M29.5,32.7c0-0.1,0-0.3,0-0.4c0.4-0.4,0.3-0.9,0.4-1.3c0.1-0.2,0.1-0.5,0.2-0.7c0.3,0.2,0.1,0.5,0.1,0.8
		c-0.1,0.4-0.2,0.8-0.3,1.3C29.9,32.5,29.9,32.8,29.5,32.7z"/>
	<path fill="#C8585E" d="M53.7,25.6c-0.9,0-1.9,0-2.8,0.1c-0.3,0-0.5,0.2-0.8,0.3c0-0.1,0-0.3,0-0.4c0.5-0.3,1.1-0.1,1.7-0.1
		c0.7,0,1.5,0,2.2,0C54,25.7,53.9,25.7,53.7,25.6z"/>
	<path fill="#C34144" d="M35.9,25.7c-0.5,0-0.7,0.3-0.9,0.7c-0.1,0.2-0.1,0.5-0.3,0.6c0.1-0.5,0.2-1,0.3-1.5
		c0.2-0.4,0.6-0.2,0.9-0.2c0.2,0,0.5,0,0.7,0c0.1,0,0.1,0,0.2,0.1c0,0.1,0,0.1-0.1,0.2c-0.2,0.1-0.3,0.1-0.5,0.1
		C36,25.8,35.9,25.8,35.9,25.7z"/>
	<path fill="#BF2528" d="M30.3,31.1c-0.2-0.2-0.1-0.5-0.1-0.8c0-0.5,0.1-0.9,0.3-1.3c0.3,0,0.2,0.2,0.2,0.4
		C30.6,29.9,30.5,30.5,30.3,31.1z"/>
	<path fill="#D9D9D9" d="M36,30.3c-0.2,0.9-0.4,1.8-0.6,2.7c0,0.2,0,0.4,0,0.5c-0.1-0.1-0.2-0.2-0.3-0.3c0-0.1,0-0.3,0-0.4
		c0.1-0.9,0.3-1.8,0.7-2.7C35.9,30.1,35.9,30.2,36,30.3z"/>
	<path fill="#F8F2F2" d="M37.2,26.1c-0.1,0.7-0.3,1.5-0.5,2.2c0-0.2,0-0.3-0.1-0.5c-0.1-0.1-0.1-0.2-0.1-0.3c0-0.2,0.1-0.4,0.1-0.6
		c0.1-0.3,0.1-0.6,0.2-0.9c0.1-0.2,0.1-0.3,0.3-0.3C37.1,26,37.1,26.1,37.2,26.1z"/>
	<path fill="#F7F7F7" d="M6.1,34.4c1.5,0,3,0,4.5,0c-0.2,0.2-0.4,0.1-0.6,0.1c-1.1,0-2.3,0-3.4,0C6.5,34.5,6.3,34.6,6.1,34.4z"/>
	<path fill="#C23C3D" d="M44.5,26c-0.2,0-0.4,0-0.5,0.1c0-0.1,0-0.2,0-0.4c0.1-0.1,0.1-0.2,0.2-0.2c0.7,0,1.5-0.2,2.2,0.1
		c-0.1,0-0.2,0-0.3,0.1c-0.1,0.1-0.2,0.2-0.3,0.2C45.4,25.8,45,25.7,44.5,26C44.6,26,44.5,26,44.5,26z"/>
	<path fill="#F7F7F7" d="M12.8,34.4c1.2,0,2.3,0,3.5,0c0.2,0,0.4-0.1,0.6,0.1c-1.1,0-2.3,0-3.4,0C13.3,34.5,13,34.6,12.8,34.4z"/>
	<path fill="#F1EBEC" d="M28.7,32.4c0.2,0,0.3-0.2,0.4-0.3c0,0.1,0,0.2,0.1,0.3c-0.3,0.4-0.6,0.7-1.1,0.9c-0.1-0.1-0.3,0-0.4-0.1
		C27.9,32.7,28.4,32.7,28.7,32.4z"/>
	<path fill="#AE2D36" d="M52.7,33.1c0,0,0-0.1,0-0.1c-0.1-0.2-0.3,0-0.4,0c-0.5,0-1,0.2-1.4-0.2c0-0.1,0-0.1,0-0.2
		c0.2,0,0.3-0.1,0.5,0c0.1,0,0.3,0,0.4,0c0.4-0.1,0.7-0.1,1.1,0C52.8,32.7,52.8,32.9,52.7,33.1z"/>
	<path fill="#C94C51" d="M33.4,25.9c0,0-0.1,0-0.1,0c0-0.1,0-0.2-0.1-0.2c-0.1,0-0.2,0-0.3,0c-0.6,0-1.3,0.1-1.9,0.4
		c0-0.4,0.1-0.5,0.5-0.5c0.5,0,1,0,1.5,0C33.3,25.4,33.5,25.5,33.4,25.9z"/>
	<path fill="#C43B3D" d="M24.1,27.3c-0.3,0.7-0.1,1.6-0.7,2.3c0.1-0.8,0.3-1.5,0.5-2.3C24,27.3,24.1,27.3,24.1,27.3z"/>
	<path fill="#7C0E0F" d="M43.2,33.1c0.4,0.2,0.7-0.1,1-0.3c0,0.2,0,0.3,0,0.5c-0.5,0-1,0.2-1.5-0.1C42.8,33.2,43,33.1,43.2,33.1z"/>
	<path fill="#BE2326" d="M49.2,31.6c0,0.5-0.1,1-0.6,1.2c0.1-0.3,0-0.6,0.2-0.8c0.1-0.2,0-0.6,0.4-0.6
		C49.2,31.5,49.2,31.5,49.2,31.6C49.2,31.6,49.2,31.6,49.2,31.6z"/>
	<path fill="#C33A3F" d="M24.1,27.3c0,0-0.1,0-0.1,0c0.1-0.6,0.2-1.3,0.5-1.9c0.1-0.1,0.1-0.1,0.1,0C24.5,26.1,24.3,26.7,24.1,27.3z
		"/>
	<path fill="#F0F0F0" d="M30.4,23.9c0.7,0.2,0.8,0.9,1.2,1.3c-0.1,0-0.2,0-0.3,0c-0.3-0.1-0.3-0.5-0.5-0.7
		C30.7,24.3,30.5,24.1,30.4,23.9z"/>
	<path fill="#E3E3E3" d="M30.8,24.5c0.4,0,0.3,0.5,0.5,0.7c-0.2,0-0.3,0.2-0.5,0.3C30.8,25.2,30.8,24.8,30.8,24.5z"/>
	<path fill="#810A0C" d="M38.4,29.4c0.1-0.6-0.1-1.3,0.4-1.8C38.7,28.2,38.6,28.8,38.4,29.4z"/>
	<path fill="#C13A3D" d="M31.1,26c0.6-0.5,1.2-0.4,1.9-0.4c-0.6,0.2-1.3,0.2-1.9,0.5C31.1,26.1,31.1,26,31.1,26z"/>
	<path fill="#810A0C" d="M38.8,27.6c-0.1-0.6,0.2-1.1,0.2-1.6c0,0,0.1-0.1,0.1-0.1c0.1,0,0.1,0.1,0,0.1C39.1,26.6,39,27.1,38.8,27.6
		z"/>
	<path fill="#931A1D" d="M41.9,33.2c0,0.2-0.2,0.1-0.3,0.1c-0.4,0-0.9,0-1.3,0c-0.2,0-0.5,0.1-0.3-0.3c0.1,0.1,0.1,0.1,0.2,0.2
		c0.4-0.2,0.9-0.2,1.3-0.1C41.6,33.1,41.8,33.1,41.9,33.2z"/>
	<path fill="#B40B0E" d="M34.1,29.1c0.6,0.1,0.4-0.6,0.7-0.8c0,0.3,0,0.6-0.2,0.8c-0.2,0.3-0.4,0.4-0.6,0C34,29,34.1,29,34.1,29.1z"
		/>
	<path fill="#950C0E" d="M39.5,32.8c-0.4-0.3-0.8,0-1.3-0.1c-0.2-0.1-0.4,0-0.5-0.2c0.5,0.2,0.9,0.1,1.4,0.1
		C39.3,32.6,39.6,32.4,39.5,32.8z"/>
	<path fill="#7C0E0F" d="M44.1,32.8c0-0.6,0-1.2,0.4-1.8C44.5,31.7,44.3,32.2,44.1,32.8z"/>
	<path fill="#F8F5F5" d="M36.6,25.5c-0.6,0-1.1-0.1-1.7,0.1c0-0.3,0.3-0.3,0.5-0.3c0.4,0,0.8,0,1.2,0c0,0,0,0,0,0
		C36.7,25.4,36.7,25.5,36.6,25.5z"/>
	<path fill="#BF2A28" d="M49.2,31.5c-0.3,0.1-0.2,0.4-0.4,0.5c0-0.4,0.1-0.8,0.2-1.1c0.1,0.1,0.2,0.2,0.2,0.3
		C49.3,31.3,49.3,31.4,49.2,31.5z"/>
	<path fill="#BE2326" d="M49.2,31.2c-0.1-0.1-0.1-0.2-0.2-0.3c0-0.3,0-0.5,0.2-0.8c0,0,0.1,0.1,0.1,0.1
		C49.5,30.6,49.3,30.9,49.2,31.2z"/>
	<path fill="#860808" d="M48.6,29.7c0,0-0.1,0-0.1,0c-0.2-0.3-0.4-0.7,0.2-0.8l0,0C48.8,29.2,48.7,29.5,48.6,29.7z"/>
	<path fill="#8E0607" d="M50.8,32c0,0,0,0.1,0,0.1c0,0,0,0.1,0,0.1c0,0.1-0.1,0.2-0.2,0.2c-0.4-0.3-0.4-0.6-0.1-1
		C50.7,31.5,50.6,31.8,50.8,32z"/>
	<path fill="#940708" d="M46.8,32.9c-0.3,0.2-0.7,0.1-0.9,0.4c-0.2,0-0.1-0.1-0.1-0.2c0,0,0.1,0,0.1,0
		C46.1,32.7,46.5,32.9,46.8,32.9z"/>
	<path fill="#F8F2F2" d="M36.8,25.3c0.1-0.2,0.3-0.2,0.4,0c0,0.1-0.1,0.2-0.1,0.3c-0.1,0.1-0.2,0.2-0.3,0.1
		C36.7,25.6,36.7,25.4,36.8,25.3z"/>
	<path fill="#F7F7F7" d="M11.9,34.1c0.4-0.3,0.7-0.1,0.9,0.3C12.5,34.3,12.2,34,11.9,34.1z"/>
	<path fill="#F9F4F4" d="M52.8,32.5c-0.4,0-0.7,0-1.1,0C52.1,32.3,52.4,32.3,52.8,32.5z"/>
	<path fill="#F7F7F7" d="M10.8,34.4c0.3-0.2,0.6-0.2,0.9-0.3C11.5,34.4,11.1,34.4,10.8,34.4z"/>
	<path fill="#D4D4D4" d="M36.8,25.7c0.1,0,0.2-0.1,0.3-0.1c0,0.1,0,0.2,0,0.3c-0.1,0.1-0.1,0.3-0.1,0.4c-0.1,0.1-0.2,0-0.3-0.1
		c0-0.1,0-0.1,0-0.2C36.6,25.9,36.7,25.8,36.8,25.7z"/>
	<path fill="#C83F46" d="M24.7,25.5c0,0-0.1,0-0.1,0c0-0.3,0.1-0.5,0.3-0.7c0.1,0,0.1,0,0.2,0C24.8,25,24.7,25.2,24.7,25.5z"/>
	<path fill="#F9F4F4" d="M50.7,32.4c0-0.1,0.1-0.1,0.1-0.2c0.1,0.2,0.4,0.1,0.5,0.3c-0.2,0-0.4,0-0.5,0
		C50.7,32.6,50.6,32.5,50.7,32.4z"/>
	<path fill="#F2F2F2" d="M24,25.5c0,0-0.1,0-0.1,0c0-0.3,0.2-0.3,0.4-0.3C24.3,25.4,24.2,25.5,24,25.5z"/>
	<path fill="#850707" d="M42.6,30c0,0-0.1,0.1-0.1,0.1c0-0.2-0.1-0.5,0.1-0.7C42.7,29.5,42.7,29.8,42.6,30z"/>
	<path fill="#BC2D30" d="M39.2,26c0,0,0-0.1,0-0.1c0-0.1,0-0.2-0.1-0.3c0,0,0-0.1,0-0.1C39.6,25.5,39.3,25.8,39.2,26z"/>
	<path fill="#F8EFEF" d="M43.1,30.3c0,0.2,0,0.5-0.1,0.7C42.9,30.7,42.8,30.5,43.1,30.3z"/>
	<path fill="#A50000" d="M32.8,33.1c0.2-0.3,0.4-0.5,0.8-0.4c0.3,0.1,0.5,0,0.6-0.4c0.2-0.8,0.5-1.7,0.6-2.5c0.1-0.7,0.5-1.3,0.6-2
		c0.4,0.5,0,1,0,1.4c-0.2,1-0.5,1.9-0.6,2.8c-0.1,0.8-0.4,1-1.2,1.1c-0.3,0-0.5,0.2-0.8,0.1C32.7,33.2,32.7,33.1,32.8,33.1z"/>
	<path fill="#8C0505" d="M32,29.5c0,0-0.1,0.1-0.1,0.1c-0.3,1-0.5,2-0.6,3.1l0,0c-0.3,0.6-0.9,0.8-1.6,0.5c1.3-0.3,1.4-1.4,1.6-2.4
		c0.1-0.5,0.2-0.9,0.3-1.3c0.2-0.1,0.3-0.5,0.6-0.2C32.1,29.4,32,29.4,32,29.5z"/>
	<path fill="#B5070B" d="M32.8,33.1c0,0,0,0.1,0,0.1c0,0.1,0,0.1,0,0.2c-0.1,0-0.1,0-0.1-0.1c0-0.1,0-0.2,0-0.3
		c-0.1-0.3,0-0.6-0.1-0.9c0-0.1,0-0.2,0-0.3c-0.1-0.2,0-0.5-0.1-0.7l0,0l0,0c-0.1-0.2-0.1-0.4,0-0.7c0.4,0.1,0.4,0.5,0.4,0.7
		C32.8,31.7,33,32.4,32.8,33.1z"/>
	<path fill="#910000" d="M35.3,29.2c0-0.5,0.1-1,0.1-1.5c0,0,0,0,0,0c0.1-0.3,0.1-0.6,0.3-0.9c0-0.1,0-0.2,0-0.3
		c0.1-0.2,0.1-0.4,0.3-0.6c0.2-0.1,0.3-0.3,0.4,0.1c0,0.1,0,0.1,0,0.2c-0.2,0.4-0.4,0.8-0.5,1.3c-0.1,0.4-0.1,0.8-0.3,1.2
		C35.6,28.9,35.6,29.2,35.3,29.2z"/>
	<path fill="#82090B" d="M29.6,33.2c0.6-0.1,1.2,0,1.6-0.5c0,0.2,0,0.4,0,0.6c-0.6,0.1-1.1,0.3-1.7-0.1
		C29.5,33.2,29.6,33.2,29.6,33.2z"/>
	<path fill="#9A0303" d="M32,29.3c-0.2-0.2-0.3,0.2-0.5,0.1c0-0.2,0.1-0.4,0.1-0.5c0.3-0.2,0.5-0.1,0.8,0l0,0c0.1,0.2,0.2,0.4,0,0.6
		C32.2,29.5,32.1,29.4,32,29.3z"/>
	<path fill="#A40607" d="M36.4,26.1c0-0.2-0.1-0.2-0.3-0.1c-0.1,0.2-0.2,0.4-0.4,0.5c0-0.1,0-0.2,0-0.3c-0.1-0.3,0.3-0.4,0.4-0.5
		c0.1-0.1,0.3-0.1,0.4-0.1C36.6,25.8,36.7,26,36.4,26.1z"/>
	<path fill="#F5ECED" d="M29.5,33.2c0.6,0.2,1.1,0.1,1.7,0.1c-0.5,0.4-1.1,0.2-1.7,0.1c-0.2,0-0.2-0.3,0-0.5
		C29.5,33,29.5,33.1,29.5,33.2z"/>
	<path fill="#A90202" d="M32.4,28.9c-0.3,0.2-0.5,0-0.8,0C31.9,28.6,32.1,28.3,32.4,28.9z"/>
	<path fill="#A90202" d="M32.3,29.5c0.2-0.1,0.1-0.3,0.1-0.5c0.6,0.4,0.1,0.7,0,1.1c-0.1,0-0.1,0-0.1-0.1c0,0,0-0.1,0-0.1
		C32.2,29.7,32.2,29.6,32.3,29.5z"/>
	<path fill="#B80308" d="M36.1,25.7c-0.1,0.2-0.3,0.4-0.4,0.5c-0.1,0.1-0.3,0.2-0.4,0.3c-0.1,0-0.1-0.1-0.1-0.1
		c0.1-0.3,0.5-0.4,0.7-0.7C35.9,25.7,36,25.7,36.1,25.7z"/>
	<path fill="#B40B0E" d="M35.2,26.4c0,0,0.1,0.1,0.1,0.1c-0.1,0.4-0.2,0.8-0.4,1.2C34.8,27.2,35.1,26.8,35.2,26.4z"/>
	<path fill="#A50000" d="M35.7,26.8c0,0.3,0,0.7-0.3,0.9C35.5,27.4,35.4,27,35.7,26.8z"/>
	<path fill="#F9F5F5" d="M32.3,30c0,0,0.1,0.1,0.1,0.1c0,0.1,0,0.2,0,0.2c0,0.2,0,0.4,0,0.7C32.1,30.6,32.3,30.3,32.3,30z"/>
	<path fill="#A00001" d="M46.8,32.9c-0.3,0-0.6,0-0.9,0.1c0-0.3,0.3-0.2,0.4-0.3c0.6-0.1,1.2-0.1,1.2-1c0-0.7,0.3-1.4,0.5-2
		c0.3-1.1,0.4-2.2,0.8-3.2c0.1-0.2,0.2-0.4,0.4-0.6c0,0.4-0.3,0.7-0.3,1.1c-0.4,1.5-0.6,2.9-1,4.4c-0.1,0.3-0.1,0.6-0.2,0.8
		C47.4,32.5,47.5,33.2,46.8,32.9z"/>
	<path fill="#B50A0C" d="M45.9,25.7c0.1,0,0.2-0.1,0.3-0.1c0.1,0.3-0.3,0.3-0.4,0.5c-0.4,0.2-1.1,0-1.2,0.7
		c-0.5,1.2-0.6,2.4-0.9,3.6c0,0.1-0.1,0.2-0.1,0.3c0.2-1.6,0.5-3.2,1.1-4.7c0,0,0,0,0,0C44.9,25.6,45.4,25.8,45.9,25.7z"/>
	<path fill="#BA171C" d="M47.7,28c0.1-0.4,0.2-0.9,0.3-1.3c0.1-0.2,0.1-0.5,0.4-0.5c-0.3,0.7-0.3,1.6-0.7,2.3
		C47.6,28.3,47.6,28.1,47.7,28z"/>
	<path fill="#BC1E28" d="M47.7,28c0,0.1,0,0.3,0,0.4c-0.1,0.7-0.3,1-0.8,0.7c0.2,0,0.3-0.2,0.3-0.4C47.6,28.6,47.5,28.2,47.7,28z"/>
	<path fill="#B60103" d="M44.5,26.8c0-1,0.7-0.6,1.2-0.7C45.3,26.3,44.8,26.4,44.5,26.8z"/>
	<path fill="#B50A0C" d="M43.2,31.7c0-0.4,0-0.8,0.3-1.1c0,0.5-0.1,1-0.3,1.5C43.1,32,43.1,31.9,43.2,31.7z"/>
	<path fill="#BC0516" d="M43.2,31.7c0,0.1,0,0.3,0,0.4c0,0.1,0,0.3,0,0.4c-0.1,0-0.2,0-0.3,0C42.9,32.2,42.9,31.9,43.2,31.7z"/>
	<path fill="#E4C3C4" d="M46.5,26c0.2,0.2,0.1,0.5,0.1,0.7C46.5,26.5,46.5,26.2,46.5,26z"/>
	<path fill="#E4C3C4" d="M46.8,28c0.2,0.2,0.1,0.5,0.1,0.7C46.8,28.5,46.8,28.2,46.8,28z"/>
	<path fill="#F9F5F5" d="M28.1,24.7c0,0,0,0.1,0,0.1c0,0.1,0.1,0.1,0.1,0.2c-0.1,1.1-0.4,2.1-0.6,3.2c-0.1,0.4-0.2,0.7-0.3,1.1
		c-0.2,0.9-0.4,1.7-0.6,2.6c-0.2,0.6-0.5,0.8-1.1,0.5c-0.1-0.1-0.1-0.1-0.1-0.2c0.1-0.2,0.4-0.2,0.6-0.4c0.6-2.1,1-4.3,1.5-6.4
		c0-0.1,0.1-0.3,0-0.4c-0.1-0.1-0.2,0.1-0.3,0.2c-0.1,0.4-0.2,0.8-0.3,1.2c-0.4,1.7-0.8,3.4-1.2,5c0,0.2-0.1,0.4-0.2,0.6
		c0,0.1-0.1,0.1-0.1,0.2c-0.4-0.1-0.3-0.5-0.3-0.7c0.3-1.7,0.7-3.4,1.2-5.1c0.1-0.3,0.2-0.6,0.2-1c0.1-0.3,0.1-0.7,0.5-0.8
		C27.5,24.5,27.8,24.4,28.1,24.7z"/>
	<path fill="#B30204" d="M25.7,24.4c0.3,0,0.5-0.1,0.8-0.1c-1,0.8-1.9,1.7-1.9,3.1c0,0.7-0.3,1.3-0.5,1.9c0,0-0.1,0.1-0.1,0.1
		c0.1,1.2-0.6,2.2-1,3.3c0-0.1-0.2-0.2-0.1-0.4c0.7-1.1,0.7-2.3,1-3.5c0.3-1.2,0.5-2.5,1.2-3.6C25.3,24.9,25.5,24.6,25.7,24.4z"/>
	<path fill="#B30106" d="M28.2,24.9c0,0,0-0.1,0-0.1c0.1,0,0.1-0.1,0.2-0.1c0.3,0.4,0.3,0.8,0.2,1.3c-0.3,1.3-0.5,2.7-0.8,4
		c-0.1,0.6-0.4,1.2-0.5,1.8c-0.3,0.8-0.7,1.1-1.3,1.1c-0.3,0-0.7-0.1-0.7-0.6c0.1,0,0.1,0,0.2,0c0.7,0.4,0.9,0.4,1.3-0.3
		c0.3-0.6,0.3-1.3,0.5-1.9c0.2-0.4,0.2-0.9,0.2-1.3c0.1-0.7,0.4-1.3,0.4-2c0-0.1,0-0.1,0-0.2c0.2-0.5,0.2-1,0.2-1.5
		C28.2,25,28.2,25,28.2,24.9z"/>
	<path fill="#810506" d="M27.1,24.7c-0.4,0.8-0.5,1.8-0.8,2.7c-0.3,1.1-0.5,2.2-0.8,3.3c-0.1,0.3-0.1,0.5-0.2,0.8
		c0,0.1,0,0.1-0.1,0.1c-0.3-0.3-0.1-0.7,0-1c0.5-1.9,0.8-3.9,1.4-5.8c0.3-0.6,0.6-0.7,1.3-0.4c-0.2,0.2-0.5,0.1-0.7,0.2
		C27.2,24.6,27.1,24.6,27.1,24.7z"/>
	<path fill="#860606" d="M26.7,24.8c-0.2,1-0.4,1.9-0.6,2.9c-0.3,1.1-0.5,2.2-0.8,3.3c-0.1,0.2-0.1,0.5,0.1,0.7
		c0.1,0.2,0.1,0.4,0,0.5c-0.3-0.1-0.4-0.3-0.4-0.6c0.5-2.2,0.9-4.4,1.6-6.6C26.6,24.9,26.6,24.8,26.7,24.8z"/>
	<path fill="#AE0001" d="M27.1,24.1c0.4-0.2,0.7-0.2,1.1,0C27.8,24.1,27.4,24.1,27.1,24.1z"/>
	<path fill="#F4EEEF" d="M27.1,24.7c0,0,0.1-0.1,0.1-0.1c0.3-0.1,0.6-0.1,0.9,0c0,0,0,0.1,0,0.1C27.8,24.7,27.4,24.7,27.1,24.7z"/>
	<path fill="#F4EEEF" d="M25.3,32.1c0-0.2,0-0.4,0-0.5c0,0,0-0.1,0-0.1c0.2,0.2,0,0.5,0.2,0.7l0,0c0,0,0,0.1,0,0.1
		c0,0.1-0.1,0.1-0.1,0C25.4,32.2,25.4,32.2,25.3,32.1C25.4,32.2,25.3,32.2,25.3,32.1z"/>
	<path fill="#881619" d="M28.1,24.5c-0.3,0-0.6,0-0.9,0c0.2-0.2,0.5-0.1,0.8-0.1C28,24.4,28.1,24.5,28.1,24.5z"/>
	<path fill="#020202" d="M16.3,26.6c-0.1,0.5-0.2,1-0.3,1.5c-0.1,0.3,0,0.5,0.3,0.4c0.3,0,0.6,0.1,0.9,0c0.5-0.1,0.6,0.1,0.6,0.6
		c-0.1,0.4-0.4,0.3-0.7,0.4c-0.4,0-0.7-0.1-1.1,0.1c-0.4,0.6-0.4,1.4-0.6,2.1c0,0.2-0.2,0.5,0.1,0.6c0.4,0.1,0.7,0,1.1,0
		c0.3,0,0.5,0,0.7,0.3c0,0.2,0,0.3-0.1,0.4c-0.1,0.2-0.4,0.3-0.6,0.3c-1,0-2.1,0-3.1,0c-0.2,0-0.4,0-0.5-0.2c0-0.1,0-0.2,0-0.2
		c0-0.2,0.1-0.3,0.3-0.3c0.4-0.2,0.5-0.6,0.6-1c0.3-1.4,0.6-2.7,1-4.1c0.2-0.5,0.3-1.2,0.9-1.4c0.2-0.1,0.4-0.2,0.6-0.2
		c0.2,0,0.4-0.1,0.5-0.1c0.4,0,0.7,0,1.1,0c0.2,0,0.4,0.1,0.4,0.3c0,0.2-0.2,0.2-0.4,0.3c-0.4,0.1-0.7,0.1-1.1,0.1
		C16.5,26.3,16.3,26.4,16.3,26.6z"/>
	<path fill="#030303" d="M13.7,24.4c0,0,0.1,0.1,0.1,0.1c0.1,0.4,0.1,0.8,0,1.2c0,0,0,0.1,0,0.1c-0.2,0.2-0.1,0.4-0.1,0.6
		c0,0.6-0.4,0.9-0.8,1.2c-0.2,0.1-0.4,0.1-0.6,0.2c-0.2,0-0.4,0.1-0.4,0.4c-0.2,0.4-0.6,0.4-0.9,0.4c-0.1,0-0.2,0-0.3-0.1
		c-0.1-0.1-0.3-0.2-0.3-0.3c0-0.1,0-0.1,0-0.2c0-0.1,0.1-0.1,0.1-0.2c0.1-0.1,0.2-0.1,0.4,0c0.1,0,0.2,0.3,0.2-0.1
		c0-0.1,0-0.2,0.1-0.3c0.3-0.6,0.5-1.2,0.5-1.8c0-0.3,0-0.6-0.2-0.9c0,0-0.1-0.1-0.1-0.1c0,0-0.1-0.1-0.1-0.1
		c-0.2-0.2-0.5-0.2-0.7,0c-0.1,0-0.1,0.1-0.2,0.1c-0.5,0.2-1,0.5-1.5,0.9c-0.2,0.1-0.3,0.3-0.6,0.1c0-1,0.3-1.3,1.3-1.5
		c0.2-0.1,0.5-0.1,0.7-0.1c0.5,0,1.1-0.1,1.6,0.2c0.2,0.2,0.5,0.1,0.8,0.1C13.1,24.3,13.5,24,13.7,24.4z"/>
	<path fill="#020202" d="M22,26.4c0,0.4-0.1,0.7-0.1,1.1c0,0.9-0.3,1.8-0.5,2.7c-0.1,0.9-0.4,1.7-0.5,2.6c0,0.2-0.1,0.4-0.3,0.5
		c-0.4,0.1-0.7,0.1-1.1,0.1c-0.3-0.2-0.3-0.5-0.1-0.7c0.4-0.6,0.5-1.4,0.6-2.1c0.2-1,0.5-1.9,0.6-2.9c0.1-0.4,0.1-0.7-0.2-1.1
		c0-0.1-0.1-0.2,0-0.3c0-0.1,0.1-0.1,0.2-0.1c0.3,0,0.6,0.1,0.9-0.1c0.6-0.3,1.2-0.2,1.8-0.4c0,0,0.1,0,0.1,0
		c0.2,0.1,0.1,0.4,0.1,0.6c-0.2,0.3-0.4,0.2-0.7,0.2C22.5,26.4,22.3,26.3,22,26.4z"/>
	<path fill="#FEFEFE" d="M15.1,32.4c-0.2-0.2-0.1-0.5,0.1-0.7c0.2-0.1,0.2,0.1,0.3,0.2c0,0.1,0.1,0.1,0.1,0.1c0.4,0.1,0.6,0,0.6-0.4
		c0.2-1.2,0.2-1.2,1.4-1.3c0.3,0,0.5-0.2,0.8-0.1c0.4-0.4,0.6-1.3,0.3-1.7c-0.2-0.3-0.4-0.5-0.8-0.4c-0.2,0-0.5,0-0.7-0.1
		c-0.1-0.3,0.1-0.5,0.3-0.5c0.5-0.1,1-0.2,1.4-0.2c0.3,0,0.6,0.1,0.5,0.6c-0.5,1.3-0.6,2.7-0.9,4c-0.1,0.3-0.2,0.6-0.4,0.8
		c-0.1-0.1-0.2-0.2-0.3-0.3c-0.1-0.1-0.2-0.3-0.4-0.1c0,0.1,0,0.3,0,0.4c0.1,0.2,0,0.4,0,0.5c-0.1,0.2-0.1,0.3-0.3,0.3
		c0,0-0.1,0-0.1,0c0-0.1-0.1-0.1-0.1-0.2c0-0.1,0-0.2,0.1-0.4c0-0.1,0-0.2,0.1-0.3c0-0.3-0.2-0.2-0.3-0.2
		C16.3,32.4,15.7,32.5,15.1,32.4z"/>
	<path fill="#F6F6F6" d="M11.9,28.3c-0.4-0.2-0.2-0.4,0.1-0.4c0.3-0.1,0.6-0.1,0.9-0.2c0.1,0.1,0.1,0.1,0.1,0.2
		c0.1,0.4,0.6,0.6,0.7,0.9c0,0.1,0,0.3,0.1,0.4c0.3,0.3,0,0.6,0,0.8c-0.3,0.9-0.3,1.9-0.8,2.8c0,0,0,0.1,0,0.1
		c-0.1,0.1-0.1,0.2,0,0.4c1.1,0.1,2.2,0,3.4,0.1c0.3,0,0.5-0.1,0.8,0.1l0,0c0,0.1,0,0.2-0.1,0.2c-1.5,0.1-3,0.3-4.5-0.1l0,0
		c-0.2-0.2-0.2-0.4-0.1-0.6c0-0.1,0.1-0.2-0.1-0.3c-0.1-0.1-0.1-0.2-0.1-0.3c0.4-1,0.8-2.1,0.7-3.2c0-0.2-0.1-0.3-0.2-0.5
		c-0.2-0.2-0.5-0.2-0.7-0.3C11.9,28.3,11.9,28.3,11.9,28.3z"/>
	<path fill="#D8D8D8" d="M15.3,32.1c0,0,0-0.1,0-0.1c0-0.7,0.2-1.4,0.4-2c0.1-0.4,0.3-0.5,0.6-0.5c0.5,0,1,0,1.5,0
		c0-0.3,0.1-0.5,0.1-0.8c0.4-0.2,0.5,0.1,0.5,0.4c0.1,0.7-0.3,1.2-1,1.3c-0.2,0-0.3,0-0.5,0c-0.4,0-0.7,0.2-0.8,0.6
		c0,0.2-0.1,0.5-0.2,0.7C16,32.1,15.8,32.3,15.3,32.1z"/>
	<path fill="#F6F6F6" d="M15.3,32.1c0.4,0.1,0.6-0.1,0.7-0.5c0-0.1,0-0.3,0.1-0.4c0.2-1,0.3-1.1,1.4-1.1c0.7,0,1-0.4,1-1
		c0-0.3-0.1-0.4-0.4-0.4c0-0.3,0-0.5,0.4-0.2c0.4,0.4,0.3,0.8,0.2,1.3c0,0.2-0.1,0.4-0.2,0.5c-0.3,0.2-0.6,0.3-0.9,0.3
		c-0.9,0-1,0.1-1.1,1C16.3,32.3,16.2,32.4,15.3,32.1z"/>
	<path fill="#383838" d="M18.9,32.7c0.3-2.1,0.9-4.1,1.4-6.1c0,0,0.1,0,0.1,0.1c0,0.1,0.1,0.1,0.1,0.2c0.1,0.8-0.2,1.5-0.3,2.2
		c-0.2,1-0.4,2-0.6,3C19.4,32.2,19.4,32.7,18.9,32.7z"/>
	<path fill="#2B2B2B" d="M18.9,32.7c0.4-0.1,0.4-0.5,0.4-0.8c0.3-1.7,0.9-3.4,1-5.2c0.3,0.1,0.4,0.3,0.4,0.6
		c-0.4,1.8-0.5,3.7-1.3,5.4c-0.1,0.2-0.2,0.4,0.1,0.5c0.4,0,0.8,0,1.2,0c0,0,0.1,0.1,0,0.1c0,0,0,0,0,0l0,0
		c-0.5,0.2-1.1,0.1-1.6,0.1c-0.3,0-0.3-0.2-0.2-0.5C18.8,32.8,18.8,32.8,18.9,32.7z"/>
	<path fill="#EEEEEE" d="M20.6,33.3c0,0,0-0.1,0-0.1c0.4-1.7,0.7-3.4,1.1-5.2c0-0.2,0.1-0.4,0.2-0.6c0.1,0.1,0.2,0.2,0.2,0.3
		c-0.4,1.8-0.9,3.5-1.1,5.3c-0.1,0.1-0.2,0.3-0.3,0.4C20.7,33.4,20.7,33.4,20.6,33.3z"/>
	<path fill="#D9D9D9" d="M16.5,28.3c-0.6-0.2-0.1-0.6-0.1-0.8c0-0.5,0.2-0.8,0.9-0.8c0.7,0,1.4-0.1,2-0.1c0.2,0,0.5-0.1,0.5,0.3
		c-0.1,0.3-0.4,0.3-0.7,0.3c-0.4,0-0.9,0-1.3,0c-0.6,0-1,0.1-1.1,0.7C16.7,28,16.6,28.1,16.5,28.3z"/>
	<path fill="#353535" d="M13.6,30c0-0.3,0.1-0.5,0.1-0.8c0.3-0.9,0.5-1.9,0.7-2.9c0-0.1,0.1-0.2,0.1-0.3c0.2-0.3,0.5-0.4,0.8-0.4
		c0.7-0.1,1.4-0.1,2.1-0.1c0.1,0,0.3,0,0.4,0.2c-0.4,0.2-0.7,0-1.1,0.1c-0.2,0-0.5,0.1-0.7,0.1c-0.3,0.1-0.6,0.2-0.9,0.3
		c-0.2,0.1-0.3,0.2-0.3,0.4c0,0.1,0,0.1-0.1,0.2c-0.1,0.3-0.2,0.6-0.2,1c0,0.1,0,0.1,0,0.2c-0.1,0.5-0.2,0.9-0.4,1.4
		C14,29.6,14,30,13.6,30z"/>
	<path fill="#3F3F3F" d="M19,25.9c0-0.2,0-0.4,0.3-0.4c1.4,0,2.7-0.1,4.1,0.1l0,0l0,0c-1,0.2-2,0.5-3.1,0.4
		C19.8,25.8,19.4,26.1,19,25.9z"/>
	<path fill="#F6F6F6" d="M19.5,27.9c0-0.1,0-0.1,0-0.2c-0.4-0.4-1.9-0.2-2.2,0.3c0,0.3-0.2,0.3-0.4,0.3c-0.2-0.7,0.1-1.2,0.8-1.2
		c0.7,0,1.5-0.3,2.2,0.1c0,0.3,0,0.6-0.1,0.8c0,0.1,0,0.2-0.1,0C19.5,28,19.5,27.9,19.5,27.9z"/>
	<path fill="#DBDBDB" d="M19.7,27.2c-0.8-0.2-1.5,0-2.3,0c-0.6,0-0.7,0.6-0.7,1c-0.1,0-0.2,0-0.3,0c0.1-1.2,0.5-1.4,1.4-1.3
		c0.6,0,1.3,0.2,2-0.1C19.8,26.9,19.8,27.1,19.7,27.2z"/>
	<path fill="#D9D9D9" d="M13.6,28.8c-0.4-0.2-0.6-0.6-1-0.8c0.1,0,0.1-0.1,0.2-0.1c0.3-0.3,0.6-0.7,1-0.8c0.2,0.1,0.2,0.2,0.1,0.3
		C13.9,27.8,13.5,28.3,13.6,28.8z"/>
	<path fill="#F6F6F6" d="M17.9,29.5c-0.4,0.3-0.9,0.1-1.4,0.1c-0.4,0-0.6,0.1-0.7,0.5c-0.1,0.6-0.3,1.3-0.5,1.9c0-0.1,0-0.2-0.1-0.3
		c0-0.8,0.3-1.5,0.5-2.3c0.7-0.1,1.3-0.1,2,0C17.8,29.5,17.8,29.5,17.9,29.5z"/>
	<path fill="#101010" d="M16.5,25.7c0.4,0,0.8,0,1.2,0c0.1-0.2,0.4-0.2,0.5-0.2c0.3-0.1,0.3,0.1,0.3,0.3c-0.1,0.2,0,0.6-0.4,0.5
		c-0.4,0-0.8,0-1.2,0c-0.2,0-0.5-0.1-0.6,0.2c0-0.4,0.3-0.3,0.5-0.3c0.4,0,0.9,0,1.4-0.3c-0.6-0.2-1.1-0.1-1.6-0.1
		C16.5,25.8,16.5,25.8,16.5,25.7C16.5,25.7,16.5,25.7,16.5,25.7z"/>
	<path fill="#5D5D5D" d="M18.3,25.5c-0.2,0.1-0.3,0.3-0.5,0.2c-1.1-0.3-2.2-0.1-3.2,0.3c0-0.3,0.1-0.5,0.5-0.5
		C16.1,25.5,17.2,25.5,18.3,25.5z"/>
	<path fill="#E9E9E9" d="M14.1,25.3c0-0.4,0-0.8-0.1-1.3c0.6,0,0.5,0.7,0.8,0.9c0,0.2-0.1,0.3-0.3,0.3c-0.3-0.4-0.1,0.2-0.2,0.1
		C14.2,25.4,14.2,25.4,14.1,25.3z"/>
	<path fill="#EFEFEF" d="M13.7,27.1c-0.2,0.4-0.5,0.6-0.9,0.8c0-0.1,0-0.2,0-0.3c0.4-0.3,0.7-0.7,0.9-1.1c0,0.1,0,0.2,0.1,0.3
		C13.9,26.9,13.8,27,13.7,27.1z"/>
	<path fill="#010101" d="M20.4,26.1c0,0.1,0,0.2,0,0.3c0,0.1,0,0.1-0.1,0.1l-0.1,0l0,0c-0.2-0.5-0.7-0.1-1-0.3
		c-0.1-0.2,0-0.3,0.2-0.3c0.2-0.1,0.5-0.1,0.7,0C20.2,26,20.4,25.9,20.4,26.1z"/>
	<path fill="#0A0A0A" d="M20.1,26c-0.3,0.1-0.7-0.2-0.9,0.3c-0.5,0.1-0.4-0.1-0.2-0.4c0.4,0,0.8-0.3,1.2,0
		C20.2,25.9,20.2,25.9,20.1,26C20.2,26,20.1,26,20.1,26z"/>
	<path fill="#EEEEEE" d="M18.8,32.9c0,0.3,0,0.4,0.4,0.4c0.5,0,1,0,1.5,0c-0.6,0.3-1.3,0.1-2,0.2C18.7,33.3,18.6,33.1,18.8,32.9z"/>
	<path fill="#EAEAEA" d="M17.7,29.5c-0.7,0-1.3,0-2,0c0.4-0.2,0.9-0.1,1.4-0.1c0.2,0,0.5,0.1,0.6-0.2C17.7,29.2,17.7,29.4,17.7,29.5
		z"/>
	<path fill="#EEEEEE" d="M22,26.4c0.2-0.2,0.5-0.1,0.8-0.1c0.2,0,0.5,0,0.7-0.2c0,0.4-0.4,0.3-0.6,0.3C22.6,26.4,22.3,26.4,22,26.4z
		"/>
	<path fill="#DDDDDD" d="M14.3,25.3c0-0.2,0-0.4,0-0.5c0.2,0.1,0.2,0.3,0.3,0.4c0,0.1-0.1,0.2-0.1,0.3
		C14.3,25.5,14.2,25.5,14.3,25.3z"/>
	<path fill="#E0E0E0" d="M14.3,25.3c0,0,0.1,0.1,0.1,0.1c-0.2,0.1,0,0.6-0.4,0.4c0.2-0.1,0.1-0.3,0.1-0.5
		C14.2,25.3,14.2,25.3,14.3,25.3z"/>
	<path fill="#DADADA" d="M13.7,27.1c0-0.1,0.1-0.2,0.1-0.3c0.3,0.2,0.1,0.4,0,0.5C13.9,27.2,13.8,27.1,13.7,27.1z"/>
	<path fill="#EEEEEE" d="M32.3,32.3c0.3,0.4,0.1,0.8,0.1,1.2c-0.4,0-0.4,0.4-0.7,0.5c-0.1-0.1-0.1-0.2-0.1-0.3
		C31.7,33.2,31.8,32.6,32.3,32.3z"/>
	<path fill="#E2E2E2" d="M31.7,33.7c0,0.1,0,0.2,0,0.3c0,0-0.1,0.1-0.1,0.1c-0.5,0-0.9,0-1.4,0c-0.5,0-0.8-0.1-1-0.5
		c0.2,0,0.4,0,0.5,0c0.5,0.4,1,0.2,1.6,0.2C31.4,33.8,31.6,33.6,31.7,33.7z"/>
	<path fill="#AE0304" d="M38.7,25.7c0.1,0,0.2,0,0.2,0c-0.2,0.3-0.5,0.6-0.7,0.8c-0.7,0.8-0.8,1.8-1,2.7c-0.2,1.3-0.4,2.7-1.3,3.8
		c-0.1-0.1-0.1-0.1-0.2-0.2c0-0.1,0-0.2,0-0.2c0.5-0.7,0.5-1.6,0.8-2.4c0.3-1,0.5-2,0.7-3.1C37.4,26.4,37.8,25.8,38.7,25.7z"/>
	<path fill="#A60000" d="M43.3,26c-0.3,0-0.3,0.3-0.4,0.5c-0.4,1.9-0.8,3.8-1.2,5.6c-0.1,0.3-0.2,0.5-0.3,0.8
		c-0.3,0.1-0.5,0.1-0.7-0.1c0.2-0.4,0.5-0.7,0.6-1.1c0.4-1.3,0.7-2.6,0.8-4c0.1-0.7,0.4-1.2,0.9-1.7C43.1,25.8,43.2,25.9,43.3,26z"
		/>
	<path fill="#850707" d="M40.8,32.8c0.2,0,0.4,0.1,0.7,0.1c0.1-0.1,0.3-0.1,0.4,0c0,0.4-0.3,0.1-0.4,0.3c-0.4,0-0.9,0-1.3,0
		C40.2,32.8,40.6,33,40.8,32.8z"/>
	<path fill="#BD202A" d="M40.9,29.9c0.1-0.6,0-1.3,0.4-1.9C41.2,28.6,41.2,29.3,40.9,29.9z"/>
	<path fill="#BD202A" d="M41.6,26.8c-0.2-0.2,0-0.3,0.1-0.4C41.7,26.5,41.7,26.7,41.6,26.8z"/>
	<path fill="#D8D8D8" d="M12.4,32.7c0,0,0.1-0.1,0.1-0.1c0.2-0.1,0.1,0.1,0.1,0.2c-0.1,0.3-0.1,0.6-0.1,0.9
		c-1.9,0.7-3.8,0.5-5.8,0.5c-0.3,0-0.8,0.1-0.6-0.5c1.6-0.1,3.2,0.1,4.8-0.1C11.4,33.1,11.9,32.9,12.4,32.7z"/>
	<path fill="#232323" d="M10.4,24c-0.2,0-0.4,0.1-0.7,0.1c-1,0.1-1.3,0.5-1.2,1.6c-0.2,0.9-0.5,1.8-0.6,2.8
		c-0.3,1.2-0.6,2.5-0.9,3.7c-0.1,0.4-0.2,0.8-0.8,0.7c0-0.1,0.1-0.2,0.1-0.3c0.3-0.5,0.3-1.1,0.4-1.7c0.2-0.2,0.1-0.4,0.1-0.6
		C7,30.2,7,29.9,7,29.6c0-0.1,0-0.3,0.2-0.2c0.3-1.1,0.5-2.3,0.8-3.4c0.1-0.3,0.2-0.7,0.3-1c0.2-0.8,0.4-1,1.4-1.1
		c0.2,0,0.5,0,0.7,0C10.4,23.9,10.4,23.9,10.4,24z"/>
	<path fill="#0B0B0B" d="M6.2,32.9c0.8-0.4,0.7-1.2,0.9-1.9c0.3-0.8,0.3-1.7,0.7-2.5c0.1,0,0.1,0,0.2,0C8,28.8,8,29,8,29.2
		c-0.2,1.1-0.5,2.1-0.8,3.1c-0.1,0.4-0.4,0.7-0.8,1c-0.1,0-0.2,0-0.3-0.1C6.1,33.1,6.1,33,6.2,32.9z"/>
	<path fill="#232323" d="M6.1,33.2c0.1,0,0.2,0,0.3,0C6.5,33.1,6.7,33,6.8,33c1.2,0,2.3-0.2,3.5,0.1c0.1,0.1,0.1,0.1,0,0.2
		c-0.2,0-0.3,0-0.5,0c-1.3,0-2.6,0.1-3.9-0.1C6,33.3,6.1,33.2,6.1,33.2z"/>
	<path fill="#F3F3F3" d="M10.3,33.3c0,0,0-0.1,0.1-0.1c0.6-0.2,1.2-0.5,1.8-0.8c0,0.1,0,0.2,0.1,0.3c-0.4,0.5-0.9,0.7-1.5,0.8
		C10.8,33.3,10.5,33.4,10.3,33.3z"/>
	<path fill="#F3F3F3" d="M6,33.3c1.3,0.1,2.6,0,3.9,0.1c-1,0.3-2,0.1-3.1,0.1C6.5,33.5,6.2,33.6,6,33.3z"/>
	<path fill="#404040" d="M6.7,31c0,0.6,0.1,1.2-0.4,1.7C6.3,32.1,6.4,31.5,6.7,31z"/>
	<path fill="#3C3C3C" d="M7.2,29.3C7,29.5,7.1,29.7,7.1,30c0,0.2,0,0.4-0.3,0.4c0-0.6,0.2-1.1,0.4-1.6C7.2,28.9,7.2,29.1,7.2,29.3z"
		/>
	<path fill="#A90000" d="M50.7,32.4c0,0,0.1,0.1,0.1,0.1c0,0,0,0.1,0,0.1c0,0.1,0,0.1,0,0.2c-0.3,0.1-0.6,0-0.9-0.2
		c-0.1-1.2,0.3-2.3,0.7-3.4c0.1-0.3,0.1-0.6,0.1-0.9c-0.1-0.7,0.7-1.2,0.5-2c0-0.1,0.5-0.4,0.8-0.4c-0.3,0.6-0.5,1.2-0.7,1.8
		c-0.1,0.3-0.2,0.5,0.1,0.8c0,0,0.1,0.1,0.1,0.1c0,0,0.1,0,0.1,0c0.4,0.2,0.8,0.2,1.2,0.1c0.3,0,0.5,0,0.3,0.4
		c-0.6,0.2-1.2,0-1.8,0.1c-0.1,0-0.2,0.1-0.2,0.2c-0.3,0.3-0.3,0.7-0.4,1.1c0,0.1,0,0.1,0,0.2c-0.1,0.2-0.1,0.4-0.2,0.6
		c0,0,0,0-0.1,0.1C50.3,31.8,50.4,32.1,50.7,32.4z"/>
	<path fill="#900003" d="M51.5,28.8c0,0-0.1-0.1-0.1-0.1c-0.1-0.3-0.2-0.5-0.1-0.8c0.2-0.7,0.1-1.4,0.8-1.9c0.4,0,0.9,0,1.3,0
		c0.5-0.3,0.5-0.3,0.7-0.1c-0.1,0.4-0.4,0.5-0.8,0.5c-0.2,0-0.5,0-0.7,0.1c-0.4,0-0.5,0.3-0.5,0.6C51.8,27.7,51.9,28.3,51.5,28.8z"
		/>
	<path fill="#9D0303" d="M49.9,32.7c0.3,0,0.6,0.1,0.9,0.1c0.5,0.1,1,0.2,1.5,0c0.2,0,0.4-0.2,0.4,0.1c-0.7,0.2-1.3,0.3-2.1,0.2
		c-0.6-0.1-1.3,0-1.9,0.1C48.9,32.7,49.4,32.8,49.9,32.7z"/>
	<path fill="#BC1D24" d="M49.2,31.2c0-0.3,0.1-0.6,0.1-0.9c0.3-0.3,0.1-0.8,0.4-1.2c0,0.9-0.2,1.7-0.5,2.5c0,0,0-0.1,0-0.1
		C49.2,31.4,49.2,31.3,49.2,31.2z"/>
	<path fill="#BC1D24" d="M49.7,29.1c0.1-0.8,0.1-1.6,0.5-2.3C50.1,27.6,50.1,28.4,49.7,29.1z"/>
	<path fill="#A70B0D" d="M54,25.9c-0.3-0.2-0.4,0.2-0.7,0.1c-0.3-0.2-0.6-0.1-0.9-0.1c0.4-0.3,0.9,0.1,1.3-0.3
		c0.1,0,0.2-0.1,0.3-0.1c0.2,0.1,0.1,0.3,0.1,0.4C54.1,25.9,54,25.9,54,25.9z"/>
	<path fill="#FEFEFE" d="M36.8,25.7c0,0.1,0,0.2-0.1,0.3c-0.1-0.1-0.1-0.3,0-0.4c0,0,0,0,0-0.1c0-0.1,0-0.1,0-0.2c0,0,0.1,0,0.1,0
		C36.8,25.5,36.8,25.6,36.8,25.7z"/>
	<path fill="#D8D8D8" d="M12.5,33.6c1.5,0,3,0,4.5,0c-0.1,0.4-0.3,0.2-0.5,0.2c-1,0-2,0-2.8,0c-0.2,0-0.1,0.2-0.1,0.1c0,0,0,0,0,0
		c1-0.1,2,0,3,0c0.4,0,0.7-0.1,0.7-0.6c0-0.2,0-0.4,0.1-0.5c0.4,0,0.4,0.3,0.4,0.6c-0.1,0.4-0.3,0.9-0.8,0.9c-1.3,0-2.6,0-3.9,0
		C12.9,34.1,12.7,33.8,12.5,33.6z"/>
	<path fill="#F6F6F6" d="M17.5,32.3c-0.1-0.2,0.1-0.1,0.2-0.1c0.2,0,0.2,0.1,0.2,0.3C17.7,32.4,17.6,32.3,17.5,32.3z"/>
	<path fill="#E9E9E9" d="M54.4,26c0-0.2,0-0.4,0.2-0.6c0.5,0.3,0.3,0.8,0.3,1.2c-0.1,0.4-0.4,0.6-0.8,0.7c-0.1,0-0.2,0-0.3,0
		c-1.2-0.1-1.2,0.3-1.2,1.2c-0.1,0.1-0.3,0.1-0.4,0c-0.4-0.9,0.1-1.7,1-1.8c0.2,0,0.5,0,0.7,0C54.4,26.7,54.7,26.5,54.4,26z"/>
	<path fill="#FEFEFE" d="M52.2,28.5c0.1,0,0.3,0,0.4,0c0.3,0,0.6-0.1,0.9,0.1c0,0.1,0,0.2,0,0.3c0,0.1,0,0.2,0,0.3
		c0,0.1,0,0.3-0.1,0.4c0-0.1-0.1-0.2-0.1-0.3c-0.1-0.3-0.1-0.5-0.5-0.4c-0.4,0.1-0.9,0.1-1.4-0.1c0,0,0,0,0,0
		c0.1-0.6,0.3-1.2,0.4-1.8c0.1-0.4,0.2-0.6,0.7-0.6c0.5-0.1,1.1,0,1.6-0.2c0.1,0.1,0.1,0.2,0.1,0.3c0,0.1-0.1,0.2-0.2,0.2
		c-0.5,0.2-1.1-0.1-1.6,0.1C52.2,27.3,51.9,27.9,52.2,28.5z"/>
	<path fill="#DDCCCD" d="M52.2,28.5c-0.2,0-0.4,0-0.4-0.3c0.2-0.5,0.1-1.1,0.4-1.6c0.6-0.2,1.3,0.1,1.9-0.1c0,0,0.1-0.1,0.1-0.1
		c0.1-0.1,0.1-0.3,0.1-0.4c0.2-0.1,0.3,0,0.3,0.2c0,0.3-0.1,0.6-0.4,0.7c-0.1,0-0.3,0-0.4,0C52.5,27,52.3,27.2,52.2,28.5z"/>
	<path fill="#FEFEFE" d="M50.1,25.3c0.3-0.2,0.6-0.1,0.9-0.1c1,0,2.1,0,3.1,0.1C52.8,25.3,51.4,25.3,50.1,25.3L50.1,25.3z"/>
	<path fill="#7F1A22" d="M54.1,26.1c-0.5,0.5-1.1,0.1-1.6,0.2c0.3-0.2,0.6-0.1,0.9-0.1c0.2-0.1,0.5-0.1,0.6-0.4c0,0,0.1,0,0.1,0
		C54.1,26,54.1,26,54.1,26.1z"/>
	<path fill="#740509" d="M28.7,32.4c-0.2,0.4-0.6,0.5-1,0.8c-0.1,0.3-0.4,0.2-0.6,0.3c-0.9,0.1-1.9,0.1-2.8,0c-0.1,0-0.2,0-0.3-0.2
		c0.1-0.4,0.4-0.3,0.6-0.2c0.8,0.2,1.6-0.1,2.3,0c0.6,0,1-0.4,1.5-0.7C28.5,32.4,28.6,32.4,28.7,32.4z"/>
	<path fill="#F6F6F6" d="M27.2,33.3c0.2-0.1,0.4,0,0.5-0.2c0.1,0,0.3,0,0.4,0.1c-0.5,0.1-0.9,0.4-1.5,0.3c-0.6,0.1-1.2,0.1-1.7,0
		c-0.5,0-1,0-1.5-0.1c0,0,0-0.1,0-0.1c0,0,0,0,0,0c0-0.1,0.1-0.1,0.1-0.2c0.1,0.1,0.2,0.2,0.4,0.1c0.1,0,0.2,0,0.3,0
		C25.2,33.4,26.2,33.4,27.2,33.3z"/>
	<path fill="#FEFEFE" d="M44,25.3c0.8-0.3,1.6,0,2.4,0C45.6,25.3,44.8,25.3,44,25.3L44,25.3z"/>
	<path fill="#830607" d="M35.3,29.2c0.3-0.5,0.3-1.2,0.5-1.7c0.2,0.3,0.2,0.6,0.1,0.9c-0.1,0.2-0.1,0.4-0.2,0.6
		c-0.1,0.4-0.2,0.8-0.2,1.2c-0.1,0.9-0.3,1.8-0.7,2.6c-0.1,0.1-0.2,0.3-0.2,0.5c-0.7,0.2-1.3,0.2-2,0c0,0,0-0.1,0-0.1
		c0.3-0.1,0.7-0.3,1.1-0.3c0.6,0,0.7-0.5,0.8-1C34.9,31,35.1,30.1,35.3,29.2z"/>
	<path fill="#F8F5F5" d="M34.9,32.8c0-0.9,0.5-1.7,0.5-2.6c0.1-0.4,0.1-0.8,0.3-1.2c0-0.2-0.1-0.4,0.1-0.6c0.2-0.7,0.1-1.6,0.6-2.2
		c0,0,0,0,0,0c0.1-0.2,0.1-0.4,0.1-0.5c0,0,0.1,0,0.1,0c0,0.1,0,0.3,0,0.4c0,0,0,0.1,0,0.1c0.1,0.3,0.1,0.5,0,0.8
		c-0.1,0.2-0.1,0.5-0.2,0.7c0,0.4-0.2,0.9-0.3,1.3c-0.1,0.4-0.2,0.8-0.3,1.2c-0.2,0.7-0.4,1.3-0.5,2c-0.1,0.2-0.1,0.5-0.3,0.7
		C35,32.8,35,32.8,34.9,32.8z"/>
	<path fill="#DADADA" d="M31.7,33.7c-0.6,0.5-1.3,0.2-1.9,0.2c-0.2,0-0.2-0.2-0.1-0.4c0.5,0,1.1,0.2,1.5-0.1c0.4-0.3,0.2-1,0.5-1.4
		c0.4-0.2,0.1-0.7,0.4-0.9c0.3,0.3,0.1,0.7,0.1,1.1C32.1,32.8,31.9,33.2,31.7,33.7z"/>
	<path fill="#E2E2E2" d="M23.5,33.3c0,0,0,0.1,0,0.1c0.4,0.5,1,0.5,1.5,0.5c1.4,0.1,2.8,0.1,4.1-0.7c0.1,0.1,0.1,0.2,0.1,0.3
		c-0.8,0.2-1.5,0.6-2.3,0.6c-1,0.1-2.1,0-3.1-0.2c-0.3-0.1-0.6-0.2-0.7-0.6C23.3,33.3,23.4,33.3,23.5,33.3z"/>
	<path fill="#82090B" d="M31.2,32.7c-0.1-1.1,0.3-2.1,0.6-3.1C31.7,30.6,31.5,31.7,31.2,32.7z"/>
	<path fill="#D5D5D5" d="M32.1,31.2c0,0.4,0,0.8-0.3,1.1c-0.1,0.1-0.1,0.2-0.1,0c0-0.1,0-0.1,0-0.2c0-0.5,0.1-1,0.3-1.5
		C32.2,30.8,32.1,31,32.1,31.2z"/>
	<path fill="#F6F0F1" d="M32.8,33.3c0.7,0.1,1.3,0.1,2,0c-0.7,0.3-1.4,0.3-2.1,0C32.7,33.3,32.7,33.3,32.8,33.3z"/>
	<path fill="#F9F5F5" d="M32.5,32.1c0.1,0.3,0.1,0.6,0.1,0.9C32.4,32.7,32.6,32.4,32.5,32.1z"/>
	<path fill="#F9F5F5" d="M32.3,29.5c0,0.1,0,0.3,0,0.4c-0.1-0.1-0.2-0.3-0.3-0.4c0,0,0-0.1,0-0.1C32.1,29.4,32.2,29.4,32.3,29.5z"/>
	<path fill="#F9F5F5" d="M32.4,31c0.1,0.2,0.1,0.5,0.1,0.7C32.3,31.5,32.4,31.3,32.4,31z"/>
	<path fill="#7F1517" d="M41.5,33.2c0.1-0.1,0.3-0.2,0.4-0.3c0-0.1,0-0.3,0.2-0.4c0,0.2,0,0.5-0.1,0.7
		C41.7,33.2,41.6,33.2,41.5,33.2z"/>
	<path fill="#343434" d="M10.4,23.9C9.9,23.8,9.5,23.9,9,24c-0.5,0.1-0.6,0.6-0.8,0.9c0-0.1,0-0.3,0-0.4c0.2-0.8,0.9-0.8,1.4-0.8
		c1.2,0,2.3-0.1,3.5,0.1c0,0,0.1,0.1,0.1,0.1c-0.2,0.4-0.6,0.3-0.9,0.2C11.8,24,11.1,23.9,10.4,23.9z"/>
	<path fill="#0D0D0D" d="M10.4,23.9c0.7-0.1,1.5,0.1,2.2,0.2c0.3,0.1,0.5,0,0.8-0.1c0.2,0,0.4,0.2,0.4,0.4c-0.3-0.2-0.6,0.1-0.9,0
		c-0.2-0.2-0.6,0-0.8-0.1C11.5,24,10.9,24,10.4,24C10.4,24,10.4,23.9,10.4,23.9z"/>
	<path fill="#EFEFEF" d="M13.9,25.7c0-0.4,0-0.8,0-1.2C14.1,24.9,14.1,25.3,13.9,25.7z"/>
	<path fill="#C83F46" d="M26.4,24c-0.2,0.2-0.4,0.2-0.7,0.3c0,0-0.1,0-0.1,0C25.8,24,26.1,24,26.4,24z"/>
	<path fill="#F7F2F2" d="M22.9,31.9c0-0.2-0.1-0.5,0.1-0.7C23.1,31.4,23.1,31.7,22.9,31.9z"/>
	<path fill="#F3F3F3" d="M22.7,32.1c0,0.1,0.1,0.2,0.1,0.3c-0.2,0.1-0.1,0.3-0.1,0.4C22.5,32.6,22.5,32.4,22.7,32.1z"/>
	<path fill="#F7F2F2" d="M24.9,33.6c0.6,0,1.2,0,1.7,0C26.1,33.8,25.5,33.8,24.9,33.6z"/>
	<path fill="#BC2D30" d="M38.7,25.7c-1.7,0.5-1.4,2.1-1.7,3.3c-0.3,1-0.5,2.1-0.8,3.2c-0.1,0.2-0.1,0.4-0.4,0.4
		c-0.1-0.2,0.2-0.3,0.1-0.5c0.1-0.3,0.2-0.6,0.2-0.8c0.2-0.2,0-0.5,0.1-0.7c0,0,0,0,0,0c0.4-0.9,0.5-1.9,0.8-2.9
		c0.1-0.3,0.1-0.6,0.2-0.9C37.5,26,37.7,25.8,38.7,25.7z"/>
	<path fill="#D6D6D6" d="M35.9,30.1c0-0.4,0.1-0.8,0.3-1.2c0-0.1,0.1-0.1,0.1,0c-0.1,0.4-0.2,0.9-0.3,1.3
		C35.9,30.2,35.9,30.2,35.9,30.1z"/>
	<path fill="#D5D5D5" d="M36.2,28.9L36.2,28.9c-0.1,0-0.1,0-0.1,0c-0.1-0.5,0.3-0.9,0.3-1.3c0,0,0.1,0,0.1,0c0,0.1,0,0.2,0,0.3
		C36.4,28.2,36.3,28.6,36.2,28.9z"/>
	<path fill="#C0363B" d="M36.1,31.3c0,0.3,0,0.6-0.3,0.8c0-0.3,0.1-0.7,0.2-1C36.2,31.2,36.2,31.3,36.1,31.3z"/>
	<path fill="#C23339" d="M36.1,31.3c0-0.1,0-0.1,0-0.2c0-0.2,0-0.4,0.1-0.5C36.2,30.9,36.3,31.1,36.1,31.3z"/>
	<path fill="#D9D9D9" d="M53.4,29.6c0-0.1,0-0.3,0.1-0.4c0.2,0.5,0,0.9-0.6,0.9c-1.2,0.1-1.2,0.1-1.5,1.4c-0.1,0.2,0,0.6-0.4,0.6
		c0.1-0.5,0.2-1,0.3-1.5c0.1-0.6,0.3-0.9,1-0.8C52.7,29.9,53.1,30,53.4,29.6z"/>
	<path fill="#830506" d="M51.1,29.5c0,0,0.1-0.1,0.1-0.1c0.1-0.1,0.1-0.1,0.2,0c0,0.1,0,0.1,0,0.2c-0.2,0.8-0.4,1.7-0.6,2.5
		c-0.3-0.1-0.2-0.3-0.2-0.5c0,0,0,0,0,0c0.2-0.2,0-0.5,0.1-0.7l0,0C50.8,30.4,50.8,29.9,51.1,29.5z"/>
	<path fill="#A31012" d="M51.5,28.8c0.5,0,0.9,0.1,1.4,0c0.4,0,0.5,0.2,0.5,0.5c0,0-0.1,0-0.1,0c0,0,0,0-0.1,0c0,0,0-0.1,0-0.1
		c0-0.2-0.1-0.2-0.3-0.2C52.4,29.1,51.9,29.1,51.5,28.8z"/>
	<path fill="#690100" d="M51.3,29.5c0-0.1,0-0.1,0-0.2c0.6-0.1,1.2-0.1,1.8,0c0,0,0,0,0,0c-0.4,0.3-0.8,0.1-1.2,0.1
		C51.8,29.5,51.6,29.5,51.3,29.5z"/>
	<path fill="#8A0606" d="M47.9,31.5c0.3-1.5,0.5-3,1.1-4.4c0,0.6-0.1,1.2-0.2,1.9c-0.4,0.2-0.2,0.5-0.2,0.8
		c-0.2,0.6-0.2,1.2-0.5,1.7C47.9,31.5,47.9,31.5,47.9,31.5z"/>
	<path fill="#940708" d="M47.9,31.5c0,0,0.1,0,0.1,0c0,0.3-0.1,0.6-0.3,0.8C47.7,32,47.7,31.7,47.9,31.5z"/>
	<path fill="#DBDBDB" d="M36.5,26.9c0.1-0.3,0.1-0.5,0.1-0.8c0.1,0,0.2,0.1,0.2,0.1c-0.2,0.2,0,0.6-0.3,0.8
		C36.6,27.1,36.6,27,36.5,26.9z"/>
	<path fill="#DBDBDB" d="M36.5,26.9c0,0,0.1,0.1,0.1,0.1c0,0.2,0.1,0.4-0.1,0.5c0,0-0.1,0-0.1,0C36.4,27.4,36.5,27.2,36.5,26.9z"/>
	<path fill="#C3383F" d="M45.9,25.7c-0.4,0.3-0.9,0-1.3,0.3c0.1-0.1-0.2-0.4,0.1-0.3C45,25.7,45.5,25.5,45.9,25.7z"/>
	<path fill="#B00102" d="M52.3,32.8c-0.5,0.3-1,0.2-1.5,0c0,0,0-0.1,0-0.1C51.3,32.9,51.8,32.8,52.3,32.8z"/>
	<path fill="#80080A" d="M36.4,26.1c-0.1,0.8-0.2,1.5-0.6,2.2c0-0.3,0-0.6,0-0.9C35.8,26.9,36,26.5,36.4,26.1z"/>
	<path fill="#E8E8E8" d="M27.9,25.3c-0.5,2.2-1.1,4.3-1.5,6.5c0,0.1-0.1,0.1-0.1,0.2c-0.1,0.1-0.3,0.1-0.4,0c-0.1-0.1-0.1-0.3,0-0.5
		c0.2-0.3,0.2-0.7,0.3-1.1c0-0.1,0-0.1,0-0.2c0.2-0.7,0.3-1.3,0.5-2c0-0.1,0-0.1,0-0.2c0.2-0.6,0.3-1.3,0.5-2
		C27.3,25.8,27.3,25.3,27.9,25.3z"/>
	<path fill="#D9D9D9" d="M26.8,28.1c0,0,0,0.1,0,0.1c-0.2,0.7-0.3,1.4-0.5,2.1l0,0c-0.1,0.4-0.2,0.8-0.3,1.2
		c-0.2,0.1-0.1,0.3-0.1,0.4c-0.1,0.1-0.2,0.1-0.3,0c0.4-1.9,0.9-3.8,1.3-5.7c0.4,0.1,0.2,0.4,0.2,0.6C27,27.3,26.9,27.7,26.8,28.1z"
		/>
	<path fill="#C1343A" d="M25.5,32.3c0,0,0.1,0,0.1,0c0.7,0.2,0.9,0.1,1.1-0.6c0.2-0.8,0.4-1.6,0.6-2.5c0.1,0,0.2,0.1,0.2,0.2
		c0,0.1,0,0.1,0,0.2c-0.1,0.8-0.4,1.6-0.5,2.5C26.5,32.8,26.1,32.8,25.5,32.3z"/>
	<path fill="#D9D9D9" d="M26.8,28.1c0.1-0.4,0.1-0.8,0.2-1.2c0-0.2,0.1-0.5-0.1-0.7c0.1-0.3,0.2-0.7,0.2-1c0-0.4,0.2-0.5,0.6-0.4
		c0.4,0.1,0,0.4,0.1,0.5c-0.6,0.3-0.5,1-0.7,1.5C27.1,27.3,27.1,27.7,26.8,28.1z"/>
	<path fill="#C2363D" d="M28.2,24.9C28.2,24.9,28.2,24.9,28.2,24.9c0.3,0.6,0,1.2,0,1.7l0,0c-0.1,0.5-0.3,1-0.3,1.5
		c-0.1,0.2-0.2,0.1-0.3-0.1C27.7,27.1,27.9,26,28.2,24.9z"/>
	<path fill="#C03034" d="M27.5,28.1c0.1,0,0.1,0.1,0.2,0.1c0.1,0.2-0.1,0.4-0.1,0.6c-0.1,0.2,0,0.6-0.3,0.6c0-0.1-0.1-0.2-0.1-0.3
		C27.3,28.9,27.4,28.5,27.5,28.1z"/>
	<path fill="#F4EEEF" d="M25.6,32c0.1,0,0.2,0,0.3,0c0.1,0,0.3,0,0.4,0c-0.2,0.2-0.4,0.1-0.7,0.1c0,0,0,0,0,0
		C25.6,32.1,25.6,32,25.6,32z"/>
	<path fill="#BF2631" d="M27.6,28.8c0-0.2,0-0.4,0.1-0.5c0-0.6,0.1-1.1,0.4-1.6c0,0.7-0.3,1.4-0.4,2.1
		C27.7,28.9,27.6,28.9,27.6,28.8z"/>
	<path fill="#C51B1D" d="M26.9,32.1c0-0.9,0.5-1.6,0.4-2.5c0.3,0.1,0.2,0.3,0.1,0.5C27.4,30.8,27.3,31.5,26.9,32.1z"/>
	<path fill="#B71D23" d="M27.5,30.1c0-0.2,0.1-0.4-0.1-0.5c0,0,0-0.1,0-0.1c0.1-0.2,0.2-0.4,0.2-0.7c0,0,0.1,0,0.1,0
		C27.7,29.3,27.8,29.7,27.5,30.1z"/>
	<path fill="#C03034" d="M28.1,26.7c-0.1-0.6,0.2-1.2,0.1-1.7C28.6,25.5,28.4,26.1,28.1,26.7z"/>
	<path fill="#141414" d="M14.9,26.1c0.3-0.1,0.6-0.3,0.9-0.3c0.1-0.1,0.3-0.1,0.3,0.1c-0.2,0-0.4,0.1-0.5,0.1
		c-0.7,0.2-0.6,0.9-0.8,1.3c-0.4,1.6-0.7,3.3-1.2,4.8c0,0.1,0,0.6-0.4,0.4c0-0.9,0.3-1.7,0.6-2.5c0.2-0.8,0.4-1.5,0.6-2.3
		c0,0,0-0.1,0-0.1c0.1-0.4,0.1-0.7,0.3-1.1l0,0C14.8,26.5,14.8,26.3,14.9,26.1z"/>
	<path fill="#2B2B2B" d="M14.4,27.9c-0.2,1.5-0.6,3-1.1,4.5c0,0.1-0.1,0.2-0.1,0.3c-0.1,0-0.2,0.1-0.3,0.1c0.2-0.9,0.4-1.9,0.7-2.8
		c0.4-0.4,0.4-1,0.6-1.5C14.2,28.3,14.2,28,14.4,27.9z"/>
	<path fill="#1C1C1C" d="M12.8,33.2c0-0.1,0.1-0.2,0.1-0.3c0,0.2,0.2,0.3,0.4,0.3c1.1,0,2.2,0,3.2,0c0.2,0,0.4-0.1,0.5-0.3
		c0,0.1,0,0.2,0,0.4c-0.2,0.2-0.4,0.1-0.6,0.1c-1.1,0-2.1,0-3.2,0C13.1,33.4,12.9,33.5,12.8,33.2z"/>
	<path fill="#EFEFEF" d="M15.1,32.4c0.6,0,1.2,0,1.8,0c0.1,0,0.4,0,0.2,0.3c-0.1-0.3-0.3-0.2-0.5-0.1C16.2,32.5,15.7,32.6,15.1,32.4
		z"/>
	<path fill="#101010" d="M14.8,27.5c0.1-0.5,0-1.2,0.8-1.3C15.1,26.4,15.1,27,14.8,27.5z"/>
	<path fill="#333333" d="M16.1,26c-0.1-0.1-0.2-0.1-0.3-0.1c0.2-0.2,0.4-0.1,0.7-0.1c0,0,0,0.1,0,0.1C16.4,25.9,16.3,25.9,16.1,26z"
		/>
	<path fill="#010101" d="M12.3,32.4c-0.5,0.5-1.1,0.8-1.8,0.8c-1.3,0-2.7,0-4,0c1.1-1.4,1.1-3.1,1.5-4.7c-0.2-0.6,0.2-1,0.2-1.6
		c0-0.2,0.1-0.4,0.1-0.6c0.2-0.2,0.1-0.4,0.2-0.6c0-0.1,0.1-0.1,0.1-0.2C9,25.3,9.5,25,9.9,24.7c0.2-0.1,0.3-0.3,0.6-0.1
		c0.2,0.6-0.1,1.1-0.1,1.6c-0.1,0.4-0.2,0.9-0.3,1.3c0,0.3,0.4,0.3,0.4,0.6c0,0,0,0.1,0,0.1c-0.2,0.2-0.5,0.1-0.7,0.3
		c-0.3,1.1-0.4,2.2-0.8,3.3c-0.1,0.5,0.1,0.7,0.6,0.7c0.2,0,0.4-0.1,0.6-0.2c0.4-0.1,0.5-0.4,0.6-0.7c0.2-0.7,0.3-1.4,0.4-2.1
		c0.1-0.5,0.3-0.8,0.9-0.7c0.3,0.1,0.7-0.3,0.9,0.1C13.2,30.2,12.9,31.3,12.3,32.4z"/>
	<path fill="#F1F1F1" d="M8.9,31.9c0.3-1.2,0.6-2.4,0.8-3.6c0.3-0.1,0.5-0.1,0.8,0c0.1,0.1,0.2,0.2,0.3,0.2c0.1,0.2,0.2,0.4,0.2,0.7
		c-0.1,0.8-0.3,1.6-0.5,2.3c-0.2,0.7-0.7,1-1.2,0.9C9,32.3,8.8,32.2,8.9,31.9z"/>
	<path fill="#F1F1F1" d="M9.9,27.5c0.2-1,0.4-2,0.6-3c0,0,0-0.1,0-0.1c0.3-0.1,0.7-0.2,0.9,0.1l0,0c0.2,0.2,0.2,0.5,0.2,0.8
		c-0.1,0.5-0.1,1.1-0.2,1.6C11.2,27.8,10.7,27.9,9.9,27.5z"/>
	<path fill="#0A0A0A" d="M13.1,28.9c-0.4-0.1-0.8,0.2-1.3,0c-0.2-0.1-0.3,0.2-0.3,0.5c-0.1,0.8-0.2,1.6-0.5,2.4
		c-0.1,0.3-0.2,0.7-0.7,0.5c-0.1-0.2,0-0.4,0.2-0.5c0.4-0.9,0.6-1.9,0.5-2.9c0-0.1,0-0.2,0.1-0.3c0.3-0.2,0.7-0.1,0.9-0.4
		c0,0,0.1,0,0.1,0c0.2,0.3,0.5,0.3,0.8,0.3C12.8,28.7,13.1,28.7,13.1,28.9z"/>
	<path fill="#282828" d="M9.9,27.5c1.1,0.2,1.2,0.1,1.4-1c0.1-0.4,0.1-0.8,0.2-1.1c0.1-0.2,0-0.5,0.1-0.7c0.7,0.8,0.1,1.6,0,2.4
		c0,0.2-0.2,0.4-0.3,0.5c-0.1,0.2-0.2,0.3-0.4,0.4c-0.1,0-0.3,0-0.4,0C10.3,27.8,10,27.9,9.9,27.5z"/>
	<path fill="#313131" d="M10.5,32c-0.1,0.1-0.2,0.3-0.3,0.4c-0.4,0.2-0.8,0.4-1.3,0c-0.2-0.2-0.3-0.4-0.1-0.6c0.1,0.4,0.5,0.6,1,0.4
		c0.2-0.1,0.4-0.3,0.4-0.6c0.2-1,0.5-2.1,0.5-3.1c0,0,0.1,0.1,0.1,0.1c0,0.1,0,0.2,0,0.3c0.2,0.4,0.1,0.7,0,1.1
		C10.9,30.7,10.8,31.4,10.5,32z"/>
	<path fill="#0D0D0D" d="M8.5,25.6c0,0,0,0.1,0,0.1c0,0,0,0-0.1,0.1c0,0,0,0-0.1-0.1c0-0.2,0-0.5,0.1-0.7c0.2-0.7,0.5-1,1.3-0.9
		C8.9,24.3,8.6,24.8,8.5,25.6z"/>
	<path fill="#0B0B0B" d="M11.5,24.5c-0.3-0.2-0.6-0.2-0.9-0.1C10.9,24.2,11.2,24.1,11.5,24.5z"/>
	<path fill="#0A0A0A" d="M10.9,28c0.1-0.1,0.3-0.3,0.4-0.4C11.3,27.8,11.3,28.2,10.9,28z"/>
	<path fill="#F1F1F1" d="M11.6,24.7c-0.1,0.2,0,0.5-0.1,0.7c0-0.3,0-0.6,0-0.8C11.5,24.6,11.6,24.6,11.6,24.7z"/>
	<path fill="#0D0D0D" d="M10.5,28.3c-0.3,0-0.5,0-0.8,0c0.2-0.2,0.5-0.1,0.8-0.1C10.5,28.2,10.5,28.2,10.5,28.3z"/>
	<path fill="#0B0B0B" d="M12,24.3c0.3,0,0.6-0.1,0.8,0.1C12.5,24.4,12.2,24.5,12,24.3z"/>
	<path fill="#0A0A0A" d="M20.3,26.5c0,0,0.1-0.1,0.1-0.1c0.6,0.2,0.4,0.7,0.4,1.1c-0.2,0.9-0.4,1.8-0.6,2.8C20,31.1,20,32,19.5,32.8
		c-0.1,0.1-0.1,0.3,0,0.4c-0.4,0-0.7,0-0.3-0.5c0.5-0.6,0.5-1.4,0.7-2.1c0.3-1,0.4-2.1,0.6-3.2c0.1-0.3,0-0.5-0.2-0.7
		C20.3,26.6,20.3,26.6,20.3,26.5z"/>
	<path fill="#0F0F0F" d="M20.1,26c0,0,0-0.1,0-0.1c1.1,0.1,2.1-0.1,3.2-0.2c-0.3,0.4-0.7,0.2-1,0.2C22,26,21.7,26,21.5,26.1
		c-0.3,0.1-0.6,0.1-0.9,0c0,0-0.1,0-0.1,0C20.3,26,20.2,26,20.1,26z"/>
	<path fill="#0A0A0A" d="M20.5,26.1c0.3,0,0.6,0,0.9,0C21.2,26.3,20.8,26.3,20.5,26.1z"/>
	<path fill="#D5D5D5" d="M17.3,33.2c0.3,0.5-0.1,0.6-0.4,0.6c-1.2,0-2.4,0-3.6-0.1c1,0,2,0,3,0c0.2,0,0.5,0.1,0.7-0.1
		c0,0,0-0.1,0-0.1C17.2,33.4,17.2,33.3,17.3,33.2z"/>
	<path fill="#EFEFEF" d="M12.8,33.2c0.1,0,0.1,0.1,0.2,0.1c1.4,0,2.7,0.1,4.1,0c0,0.1,0,0.1,0,0.2c-1.3,0-2.6,0-3.9,0
		C13,33.5,12.7,33.6,12.8,33.2z"/>
	<path fill="#2A2A2A" d="M12.8,28.5c-0.4,0.2-0.7,0.2-0.8-0.3C12.3,28.2,12.6,28.3,12.8,28.5z"/>
	<path fill="#333333" d="M14.7,26.7c0,0.4-0.1,0.7-0.3,1.1C14.4,27.4,14.4,27,14.7,26.7z"/>
	<path fill="#333333" d="M14.9,26.1c0,0.2-0.1,0.4-0.3,0.5C14.7,26.4,14.7,26.2,14.9,26.1z"/>
	<path fill="#0D0D0D" d="M8.4,26.4c-0.3,0.7-0.5,1.4-0.5,2.1c0,0-0.1,0-0.1,0c0.1-1,0.3-1.9,0.7-2.8c0,0,0,0,0,0
		C8.5,26,8.5,26.2,8.4,26.4z"/>
	<path fill="#8E0607" d="M53.2,29.3c-0.6,0-1.2,0-1.8,0c0,0-0.1,0-0.1,0c0.6-0.3,1.3,0,2-0.1C53.2,29.2,53.2,29.3,53.2,29.3z"/>
	<path fill="#8E0607" d="M51.1,29.5c-0.1,0.4-0.2,0.9-0.4,1.3C50.7,30.3,50.6,29.8,51.1,29.5z"/>
	<path fill="#970203" d="M51.2,27.9c0,0.3,0.2,0.5,0.1,0.8C51,28.4,51,28.2,51.2,27.9z"/>
	<path fill="#8E0607" d="M50.7,30.8c0,0.2,0.1,0.5-0.1,0.7C50.6,31.2,50.4,31,50.7,30.8z"/>
	<path fill="#E9E9E9" d="M54.1,26.5c-0.6,0.3-1.3,0.1-1.9,0.1C52.9,26.4,53.5,26.6,54.1,26.5z"/>
	<path fill="#F7F2F2" d="M27.2,33.3c-1,0.2-2,0.2-2.9,0C25.2,33.3,26.2,33.3,27.2,33.3z"/>
	<path fill="#80080A" d="M35.7,28.9c0,0.4-0.1,0.8-0.3,1.2C35.4,29.7,35.5,29.3,35.7,28.9z"/>
	<path fill="#D9D9D9" d="M26.3,30.4c0.1-0.7,0.2-1.5,0.5-2.1C26.7,29,26.6,29.7,26.3,30.4z"/>
	<path fill="#D9D9D9" d="M26,31.6c0-0.4,0-0.8,0.3-1.2C26.3,30.8,26.2,31.2,26,31.6z"/>
	<path fill="#0B0B0B" d="M8.4,26.4c0-0.2,0-0.4,0-0.7c0,0,0.1,0,0.1,0C8.5,26,8.6,26.2,8.4,26.4z"/>
	<path fill="#DBDBDB" d="M10.5,28.8c-0.3,1.1-0.5,2-0.7,3C9.7,32,9.5,32.1,9.3,32c-0.2-0.1-0.1-0.3,0-0.4c0.1-0.8,0.4-1.6,0.5-2.5
		c0-0.1,0.1-0.3,0.2-0.4c0.1-0.2,0.2-0.2,0.4-0.2C10.5,28.6,10.5,28.7,10.5,28.8z"/>
	<path fill="#D9D9D9" d="M11.2,24.7c0.2,0.2,0.1,0.3,0.1,0.5c-0.2,0.6-0.3,1.2-0.5,1.8c0,0.2-0.2,0.3-0.4,0.3
		c-0.2-0.1-0.1-0.2-0.1-0.4c0.2-0.7,0.2-1.3,0.5-2C11.1,25.1,11,24.7,11.2,24.7z"/>
	<path fill="#D3D3D3" d="M11.2,24.7c0,0.3,0,0.5-0.3,0.6c0-0.1,0-0.2-0.1-0.3C10.8,24.7,11,24.7,11.2,24.7z"/>
	<path fill="#212121" d="M10.5,32c0.2-1,0.5-2,0.4-3.1c0.1,0,0.3,0.1,0.2,0.3C11,30.1,11.1,31.1,10.5,32z"/>
</g>
</svg>
