<?xml version="1.0" encoding="utf-8"?>
<!-- Generator: Adobe Illustrator 17.1.0, SVG Export Plug-In . SVG Version: 6.00 Build 0)  -->
<!DOCTYPE svg PUBLIC "-//W3C//DTD SVG 1.1//EN" "http://www.w3.org/Graphics/SVG/1.1/DTD/svg11.dtd">
<svg version="1.1" id="Layer_1" xmlns="http://www.w3.org/2000/svg" xmlns:xlink="http://www.w3.org/1999/xlink" x="0px" y="0px"
	 viewBox="0 0 73 28.6" enable-background="new 0 0 73 28.6" xml:space="preserve">
<g>
	<path d="M44.1,3.9H26.2c-0.9,0-1.6,0.7-1.6,1.6v17.9c0,0.9,0.7,1.6,1.6,1.6h17.9c0.9,0,1.6-0.7,1.6-1.6V5.5
		C45.7,4.6,45,3.9,44.1,3.9L44.1,3.9z M42.7,11.5l-8,8C34.4,19.9,34,20,33.6,20c-0.4,0-0.8-0.2-1.1-0.5l-4.8-4.8
		c-0.6-0.6-0.6-1.6,0-2.3c0.6-0.6,1.6-0.6,2.3,0l3.6,3.6l6.9-6.9c0.6-0.6,1.6-0.6,2.3,0C43.3,9.9,43.3,10.9,42.7,11.5L42.7,11.5z
		 M42.7,11.5"/>
</g>
</svg>
