<?xml version="1.0" encoding="utf-8"?>
<!-- Generator: Adobe Illustrator 17.1.0, SVG Export Plug-In . SVG Version: 6.00 Build 0)  -->
<!DOCTYPE svg PUBLIC "-//W3C//DTD SVG 1.1//EN" "http://www.w3.org/Graphics/SVG/1.1/DTD/svg11.dtd">
<svg version="1.1" id="Layer_1" xmlns="http://www.w3.org/2000/svg" xmlns:xlink="http://www.w3.org/1999/xlink" x="0px" y="0px"
	 viewBox="0 0 80 60" enable-background="new 0 0 80 60" xml:space="preserve">
<g>
	<path fill="#FF0000" d="M44.3,6.3c0,2.5-2,4.5-4.5,4.5c-2.5,0-4.5-2-4.5-4.5c0-2.5,2-4.5,4.5-4.5C42.2,1.8,44.3,3.8,44.3,6.3
		L44.3,6.3z M44.3,6.3"/>
	<path fill="#FF0000" d="M65,41.9c0,2.5-2,4.5-4.5,4.5c-2.5,0-4.5-2-4.5-4.5c0-2.5,2-4.5,4.5-4.5C63,37.4,65,39.4,65,41.9L65,41.9z
		 M65,41.9"/>
	<g>
		<defs>
			<rect id="SVGID_1_" x="13.4" y="0.6" width="52.7" height="59"/>
		</defs>
		<clipPath id="SVGID_2_">
			<use xlink:href="#SVGID_1_"  overflow="visible"/>
		</clipPath>
		<path clip-path="url(#SVGID_2_)" fill="#FF0000" d="M23.6,41.9c0,2.5-2,4.5-4.5,4.5c-2.5,0-4.5-2-4.5-4.5c0-2.5,2-4.5,4.5-4.5
			C21.5,37.4,23.6,39.4,23.6,41.9L23.6,41.9z M23.6,41.9"/>
		<path clip-path="url(#SVGID_2_)" fill="#222222" d="M66.1,18.3c0-3.1-2.5-5.6-5.6-5.6c-1.7,0-3.2,0.7-4.2,1.9L45.1,8.1
			c0.2-0.6,0.3-1.2,0.3-1.8c0-3.1-2.5-5.6-5.6-5.6c-3.1,0-5.6,2.5-5.6,5.6c0,0.6,0.1,1.2,0.3,1.8l-11.1,6.5c-1-1.2-2.5-1.9-4.2-1.9
			c-3.1,0-5.6,2.5-5.6,5.6c0,2.7,1.9,4.9,4.4,5.5l0,12.6c-2.5,0.6-4.4,2.8-4.4,5.5c0,3.1,2.5,5.6,5.6,5.6c1.7,0,3.1-0.7,4.2-1.9
			l11.2,6.5c-0.2,0.6-0.3,1.1-0.3,1.7c0,3.1,2.5,5.6,5.6,5.6c3.1,0,5.6-2.5,5.6-5.6c0-0.6-0.1-1.2-0.3-1.7l11.2-6.5
			c1,1.1,2.5,1.9,4.2,1.9c3.1,0,5.6-2.5,5.6-5.6c0-2.7-2-5-4.5-5.5V23.8C64.1,23.3,66.1,21,66.1,18.3L66.1,18.3z M60.4,14.8
			c1.9,0,3.5,1.5,3.5,3.5c0,1.9-1.5,3.5-3.5,3.5c-1.9,0-3.5-1.5-3.5-3.5C57,16.3,58.5,14.8,60.4,14.8L60.4,14.8z M39.7,2.8
			c1.9,0,3.5,1.5,3.5,3.5c0,0.6-0.1,1.1-0.4,1.6c0,0,0,0-0.1,0.1l0,0.1c-0.6,1-1.7,1.7-3,1.7c-1.9,0-3.5-1.6-3.5-3.5
			C36.3,4.4,37.8,2.8,39.7,2.8L39.7,2.8z M15.6,18.3c0-1.9,1.5-3.5,3.5-3.5c1.9,0,3.5,1.5,3.5,3.5c0,1.9-1.6,3.5-3.5,3.5
			C17.1,21.7,15.6,20.2,15.6,18.3L15.6,18.3z M19,45.4c-1.9,0-3.5-1.6-3.5-3.5c0-1.9,1.5-3.5,3.5-3.5c1.9,0,3.5,1.5,3.5,3.5
			C22.5,43.8,20.9,45.4,19,45.4L19,45.4z M39.7,57.3c-1.9,0-3.5-1.5-3.5-3.5c0-1.9,1.6-3.5,3.5-3.5c1.9,0,3.5,1.6,3.5,3.5
			C43.2,55.8,41.6,57.3,39.7,57.3L39.7,57.3z M44,50.2c-1-1.2-2.6-2-4.3-2c-1.7,0-3.3,0.8-4.3,2l-11.1-6.4c0.2-0.6,0.3-1.2,0.3-1.9
			c0-2.8-2-5.1-4.6-5.6l0-12.6c2.6-0.5,4.7-2.8,4.7-5.6c0-0.6-0.1-1.2-0.3-1.8L35.5,10c1,1.2,2.6,1.9,4.3,1.9c1.7,0,3.2-0.7,4.2-1.9
			l11.1,6.5c-0.2,0.6-0.3,1.2-0.3,1.8c0,2.7,2,5,4.5,5.5v12.6c-2.6,0.5-4.5,2.8-4.5,5.5c0,0.7,0.1,1.3,0.3,1.9L44,50.2z M63.9,41.9
			c0,1.9-1.5,3.5-3.5,3.5c-1.9,0-3.5-1.6-3.5-3.5c0-1.9,1.6-3.5,3.5-3.5C62.4,38.4,63.9,40,63.9,41.9L63.9,41.9z M63.9,41.9"/>
	</g>
	<path fill="#222222" d="M45,34.4v-3.9c0.7-0.6,1-1.5,1-2.5v-5.2c0-3.2-2.6-5.7-5.7-5.7h-1.1c-3.2,0-5.7,2.6-5.7,5.7V28
		c0,0.9,0.4,1.8,1,2.5v3.9c-1.2,0.6-4.3,2.3-7.1,4.6c-0.5,0.4-0.5,1.1-0.1,1.5c0.4,0.5,1.1,0.5,1.5,0.1c3.1-2.6,6.5-4.3,7.1-4.6
		c0.5-0.2,0.7-0.7,0.7-1.2v-5c0-0.4-0.2-0.7-0.5-0.9c-0.3-0.2-0.6-0.6-0.6-1v-5.2c0-2,1.6-3.6,3.6-3.6h1.1c2,0,3.6,1.6,3.6,3.6V28
		c0,0.4-0.2,0.8-0.6,1c-0.3,0.2-0.5,0.5-0.5,0.9v5c0,0.5,0.3,1,0.7,1.2c0.6,0.3,4,2,7.1,4.6c0.2,0.2,0.4,0.3,0.7,0.3
		c0.3,0,0.6-0.1,0.8-0.4c0.4-0.5,0.3-1.2-0.1-1.5C49.2,36.7,46.2,35.1,45,34.4L45,34.4z M45,34.4"/>
</g>
</svg>
