<?xml version="1.0" encoding="utf-8"?>
<!-- Generator: Adobe Illustrator 17.1.0, SVG Export Plug-In . SVG Version: 6.00 Build 0)  -->
<!DOCTYPE svg PUBLIC "-//W3C//DTD SVG 1.1//EN" "http://www.w3.org/Graphics/SVG/1.1/DTD/svg11.dtd">
<svg version="1.1" id="Layer_1" xmlns="http://www.w3.org/2000/svg" xmlns:xlink="http://www.w3.org/1999/xlink" x="0px" y="0px"
	 viewBox="0 0 25 25" enable-background="new 0 0 25 25" xml:space="preserve">
<g>
	<path fill="#A1A1A1" d="M8.7,8.1c0-0.9-0.7-1.6-1.6-1.6c-0.9,0-1.6,0.7-1.6,1.6c0,0.6,0.3,1.1,0.8,1.4v9.8h1.6V9.5
		C8.4,9.2,8.7,8.7,8.7,8.1L8.7,8.1z M8.7,8.1"/>
	<path fill="#A1A1A1" d="M8.7,9.7c0,0,0.8-2.4,2.9-2.4c2.2,0,1.8,0.8,3.5,0.8c1.9,0,3.2-0.8,3.2-0.8v6.4c0,0-0.6,1.6-3.2,1.6
		c-1.8,0-1.8-0.8-4-0.8c-1.8,0-2.4,1.6-2.4,1.6V9.7z M8.7,9.7"/>
</g>
</svg>
